%!PS-Adobe-3.0 EPSF-3.0
%%Title: ../../results/HA20073/A097/histograms/controls/all/histogram_A097_intensidad_control_only_F635_Median.eps
%%Creator: matplotlib version 3.0.0, http://matplotlib.org/
%%CreationDate: Sat Mar  9 22:14:01 2019
%%Orientation: portrait
%%BoundingBox: 75 223 536 568
%%EndComments
%%BeginProlog
/mpldict 8 dict def
mpldict begin
/m { moveto } bind def
/l { lineto } bind def
/r { rlineto } bind def
/c { curveto } bind def
/cl { closepath } bind def
/box {
m
1 index 0 r
0 exch r
neg 0 r
cl
} bind def
/clipbox {
box
clip
newpath
} bind def
%!PS-Adobe-3.0 Resource-Font
%%Title: DejaVu Sans
%%Copyright: Copyright (c) 2003 by Bitstream, Inc. All Rights Reserved. Copyright (c) 2006 by Tavmjong Bah. All Rights Reserved. DejaVu changes are in public domain 
%%Creator: Converted from TrueType to type 3 by PPR
25 dict begin
/_d{bind def}bind def
/_m{moveto}_d
/_l{lineto}_d
/_cl{closepath eofill}_d
/_c{curveto}_d
/_sc{7 -1 roll{setcachedevice}{pop pop pop pop pop pop}ifelse}_d
/_e{exec}_d
/FontName /DejaVuSans def
/PaintType 0 def
/FontMatrix[.001 0 0 .001 0 0]def
/FontBBox[-1021 -463 1793 1232]def
/FontType 3 def
/Encoding [ /space /parenleft /parenright /hyphen /period /zero /one /two /three /four /five /six /seven /eight /nine /A /D /F /G /K /M /O /P /S /underscore /a /b /c /d /e /g /i /l /m /n /o /r /s /t /u /acute /ntilde /oacute /tilde /minus ] def
/FontInfo 10 dict dup begin
/FamilyName (DejaVu Sans) def
/FullName (DejaVu Sans) def
/Notice (Copyright (c) 2003 by Bitstream, Inc. All Rights Reserved. Copyright (c) 2006 by Tavmjong Bah. All Rights Reserved. DejaVu changes are in public domain ) def
/Weight (Book) def
/Version (Version 2.35) def
/ItalicAngle 0.0 def
/isFixedPitch false def
/UnderlinePosition -130 def
/UnderlineThickness 90 def
end readonly def
/CharStrings 46 dict dup begin
/.notdef 0 def
/space{318 0 0 0 0 0 _sc
}_d
/parenleft{390 0 86 -131 310 759 _sc
310 759 _m
266 683 234 609 213 536 _c
191 463 181 389 181 314 _c
181 238 191 164 213 91 _c
234 17 266 -56 310 -131 _c
232 -131 _l
183 -54 146 20 122 94 _c
98 168 86 241 86 314 _c
86 386 98 459 122 533 _c
146 607 182 682 232 759 _c
310 759 _l
_cl}_d
/parenright{390 0 80 -131 304 759 _sc
80 759 _m
158 759 _l
206 682 243 607 267 533 _c
291 459 304 386 304 314 _c
304 241 291 168 267 94 _c
243 20 206 -54 158 -131 _c
80 -131 _l
123 -56 155 17 177 91 _c
198 164 209 238 209 314 _c
209 389 198 463 177 536 _c
155 609 123 683 80 759 _c
_cl}_d
/hyphen{361 0 49 234 312 314 _sc
49 314 _m
312 314 _l
312 234 _l
49 234 _l
49 314 _l
_cl}_d
/period{318 0 107 0 210 124 _sc
107 124 _m
210 124 _l
210 0 _l
107 0 _l
107 124 _l
_cl}_d
/zero{636 0 66 -13 570 742 _sc
318 664 _m
267 664 229 639 203 589 _c
177 539 165 464 165 364 _c
165 264 177 189 203 139 _c
229 89 267 64 318 64 _c
369 64 407 89 433 139 _c
458 189 471 264 471 364 _c
471 464 458 539 433 589 _c
407 639 369 664 318 664 _c
318 742 _m
399 742 461 709 505 645 _c
548 580 570 486 570 364 _c
570 241 548 147 505 83 _c
461 19 399 -13 318 -13 _c
236 -13 173 19 130 83 _c
87 147 66 241 66 364 _c
66 486 87 580 130 645 _c
173 709 236 742 318 742 _c
_cl}_d
/one{636 0 110 0 544 729 _sc
124 83 _m
285 83 _l
285 639 _l
110 604 _l
110 694 _l
284 729 _l
383 729 _l
383 83 _l
544 83 _l
544 0 _l
124 0 _l
124 83 _l
_cl}_d
/two{{636 0 73 0 536 742 _sc
192 83 _m
536 83 _l
536 0 _l
73 0 _l
73 83 _l
110 121 161 173 226 239 _c
290 304 331 346 348 365 _c
380 400 402 430 414 455 _c
426 479 433 504 433 528 _c
433 566 419 598 392 622 _c
365 646 330 659 286 659 _c
255 659 222 653 188 643 _c
154 632 117 616 78 594 _c
78 694 _l
118 710 155 722 189 730 _c
223 738 255 742 284 742 _c
}_e{359 742 419 723 464 685 _c
509 647 532 597 532 534 _c
532 504 526 475 515 449 _c
504 422 484 390 454 354 _c
446 344 420 317 376 272 _c
332 227 271 164 192 83 _c
_cl}_e}_d
/three{{636 0 76 -13 556 742 _sc
406 393 _m
453 383 490 362 516 330 _c
542 298 556 258 556 212 _c
556 140 531 84 482 45 _c
432 6 362 -13 271 -13 _c
240 -13 208 -10 176 -4 _c
144 1 110 10 76 22 _c
76 117 _l
103 101 133 89 166 81 _c
198 73 232 69 268 69 _c
330 69 377 81 409 105 _c
441 129 458 165 458 212 _c
458 254 443 288 413 312 _c
383 336 341 349 287 349 _c
}_e{202 349 _l
202 430 _l
291 430 _l
339 430 376 439 402 459 _c
428 478 441 506 441 543 _c
441 580 427 609 401 629 _c
374 649 336 659 287 659 _c
260 659 231 656 200 650 _c
169 644 135 635 98 623 _c
98 711 _l
135 721 170 729 203 734 _c
235 739 266 742 296 742 _c
370 742 429 725 473 691 _c
517 657 539 611 539 553 _c
539 513 527 479 504 451 _c
481 423 448 403 406 393 _c
_cl}_e}_d
/four{636 0 49 0 580 729 _sc
378 643 _m
129 254 _l
378 254 _l
378 643 _l
352 729 _m
476 729 _l
476 254 _l
580 254 _l
580 172 _l
476 172 _l
476 0 _l
378 0 _l
378 172 _l
49 172 _l
49 267 _l
352 729 _l
_cl}_d
/five{{636 0 77 -13 549 729 _sc
108 729 _m
495 729 _l
495 646 _l
198 646 _l
198 467 _l
212 472 227 476 241 478 _c
255 480 270 482 284 482 _c
365 482 429 459 477 415 _c
525 370 549 310 549 234 _c
549 155 524 94 475 51 _c
426 8 357 -13 269 -13 _c
238 -13 207 -10 175 -6 _c
143 -1 111 6 77 17 _c
77 116 _l
106 100 136 88 168 80 _c
199 72 232 69 267 69 _c
}_e{323 69 368 83 401 113 _c
433 143 450 183 450 234 _c
450 284 433 324 401 354 _c
368 384 323 399 267 399 _c
241 399 214 396 188 390 _c
162 384 135 375 108 363 _c
108 729 _l
_cl}_e}_d
/six{{636 0 70 -13 573 742 _sc
330 404 _m
286 404 251 388 225 358 _c
199 328 186 286 186 234 _c
186 181 199 139 225 109 _c
251 79 286 64 330 64 _c
374 64 409 79 435 109 _c
461 139 474 181 474 234 _c
474 286 461 328 435 358 _c
409 388 374 404 330 404 _c
526 713 _m
526 623 _l
501 635 476 644 451 650 _c
425 656 400 659 376 659 _c
310 659 260 637 226 593 _c
}_e{192 549 172 482 168 394 _c
187 422 211 444 240 459 _c
269 474 301 482 336 482 _c
409 482 467 459 509 415 _c
551 371 573 310 573 234 _c
573 159 550 99 506 54 _c
462 9 403 -13 330 -13 _c
246 -13 181 19 137 83 _c
92 147 70 241 70 364 _c
70 479 97 571 152 639 _c
206 707 280 742 372 742 _c
396 742 421 739 447 735 _c
472 730 498 723 526 713 _c
_cl}_e}_d
/seven{636 0 82 0 551 729 _sc
82 729 _m
551 729 _l
551 687 _l
286 0 _l
183 0 _l
432 646 _l
82 646 _l
82 729 _l
_cl}_d
/eight{{636 0 68 -13 568 742 _sc
318 346 _m
271 346 234 333 207 308 _c
180 283 167 249 167 205 _c
167 161 180 126 207 101 _c
234 76 271 64 318 64 _c
364 64 401 76 428 102 _c
455 127 469 161 469 205 _c
469 249 455 283 429 308 _c
402 333 365 346 318 346 _c
219 388 _m
177 398 144 418 120 447 _c
96 476 85 511 85 553 _c
85 611 105 657 147 691 _c
188 725 245 742 318 742 _c
}_e{390 742 447 725 489 691 _c
530 657 551 611 551 553 _c
551 511 539 476 515 447 _c
491 418 459 398 417 388 _c
464 377 501 355 528 323 _c
554 291 568 251 568 205 _c
568 134 546 80 503 43 _c
459 5 398 -13 318 -13 _c
237 -13 175 5 132 43 _c
89 80 68 134 68 205 _c
68 251 81 291 108 323 _c
134 355 171 377 219 388 _c
183 544 _m
183 506 194 476 218 455 _c
}_e{242 434 275 424 318 424 _c
360 424 393 434 417 455 _c
441 476 453 506 453 544 _c
453 582 441 611 417 632 _c
393 653 360 664 318 664 _c
275 664 242 653 218 632 _c
194 611 183 582 183 544 _c
_cl}_e}_d
/nine{{636 0 63 -13 566 742 _sc
110 15 _m
110 105 _l
134 93 159 84 185 78 _c
210 72 235 69 260 69 _c
324 69 374 90 408 134 _c
442 178 462 244 468 334 _c
448 306 424 284 396 269 _c
367 254 335 247 300 247 _c
226 247 168 269 126 313 _c
84 357 63 417 63 494 _c
63 568 85 628 129 674 _c
173 719 232 742 306 742 _c
390 742 455 709 499 645 _c
543 580 566 486 566 364 _c
}_e{566 248 538 157 484 89 _c
429 21 356 -13 264 -13 _c
239 -13 214 -10 189 -6 _c
163 -2 137 5 110 15 _c
306 324 _m
350 324 385 339 411 369 _c
437 399 450 441 450 494 _c
450 546 437 588 411 618 _c
385 648 350 664 306 664 _c
262 664 227 648 201 618 _c
175 588 162 546 162 494 _c
162 441 175 399 201 369 _c
227 339 262 324 306 324 _c
_cl}_e}_d
/A{684 0 8 0 676 729 _sc
342 632 _m
208 269 _l
476 269 _l
342 632 _l
286 729 _m
398 729 _l
676 0 _l
573 0 _l
507 187 _l
178 187 _l
112 0 _l
8 0 _l
286 729 _l
_cl}_d
/D{770 0 98 0 711 729 _sc
197 648 _m
197 81 _l
316 81 _l
416 81 490 103 537 149 _c
583 195 607 267 607 365 _c
607 463 583 534 537 580 _c
490 625 416 648 316 648 _c
197 648 _l
98 729 _m
301 729 _l
442 729 546 699 612 641 _c
678 582 711 490 711 365 _c
711 239 677 147 611 88 _c
545 29 441 0 301 0 _c
98 0 _l
98 729 _l
_cl}_d
/F{575 0 98 0 517 729 _sc
98 729 _m
517 729 _l
517 646 _l
197 646 _l
197 431 _l
486 431 _l
486 348 _l
197 348 _l
197 0 _l
98 0 _l
98 729 _l
_cl}_d
/G{{775 0 56 -13 693 742 _sc
595 104 _m
595 300 _l
434 300 _l
434 381 _l
693 381 _l
693 68 _l
655 40 613 20 567 7 _c
521 -6 472 -13 420 -13 _c
306 -13 216 20 152 86 _c
88 152 56 245 56 364 _c
56 482 88 575 152 642 _c
216 708 306 742 420 742 _c
467 742 512 736 555 724 _c
598 712 638 695 674 673 _c
674 568 _l
637 598 598 621 557 637 _c
516 653 473 661 428 661 _c
}_e{338 661 271 636 227 586 _c
182 536 160 462 160 364 _c
160 265 182 191 227 141 _c
271 91 338 67 428 67 _c
462 67 493 70 521 76 _c
549 82 573 91 595 104 _c
_cl}_e}_d
/K{656 0 98 0 677 729 _sc
98 729 _m
197 729 _l
197 421 _l
524 729 _l
651 729 _l
289 389 _l
677 0 _l
547 0 _l
197 351 _l
197 0 _l
98 0 _l
98 729 _l
_cl}_d
/M{863 0 98 0 765 729 _sc
98 729 _m
245 729 _l
431 233 _l
618 729 _l
765 729 _l
765 0 _l
669 0 _l
669 640 _l
481 140 _l
382 140 _l
194 640 _l
194 0 _l
98 0 _l
98 729 _l
_cl}_d
/O{787 0 56 -13 731 742 _sc
394 662 _m
322 662 265 635 223 582 _c
181 528 160 456 160 364 _c
160 272 181 199 223 146 _c
265 92 322 66 394 66 _c
465 66 522 92 564 146 _c
606 199 627 272 627 364 _c
627 456 606 528 564 582 _c
522 635 465 662 394 662 _c
394 742 _m
496 742 577 707 639 639 _c
700 571 731 479 731 364 _c
731 248 700 157 639 89 _c
577 21 496 -13 394 -13 _c
291 -13 209 21 148 89 _c
86 157 56 248 56 364 _c
56 479 86 571 148 639 _c
209 707 291 742 394 742 _c
_cl}_d
/P{603 0 98 0 569 729 _sc
197 648 _m
197 374 _l
321 374 _l
367 374 402 385 427 409 _c
452 433 465 467 465 511 _c
465 555 452 588 427 612 _c
402 636 367 648 321 648 _c
197 648 _l
98 729 _m
321 729 _l
402 729 464 710 506 673 _c
548 636 569 582 569 511 _c
569 439 548 384 506 348 _c
464 311 402 293 321 293 _c
197 293 _l
197 0 _l
98 0 _l
98 729 _l
_cl}_d
/S{{635 0 66 -13 579 742 _sc
535 705 _m
535 609 _l
497 627 462 640 429 649 _c
395 657 363 662 333 662 _c
279 662 237 651 208 631 _c
179 610 165 580 165 542 _c
165 510 174 485 194 469 _c
213 452 250 439 304 429 _c
364 417 _l
437 403 491 378 526 343 _c
561 307 579 260 579 201 _c
579 130 555 77 508 41 _c
460 5 391 -13 300 -13 _c
265 -13 228 -9 189 -2 _c
}_e{150 5 110 16 69 32 _c
69 134 _l
109 111 148 94 186 83 _c
224 71 262 66 300 66 _c
356 66 399 77 430 99 _c
460 121 476 152 476 194 _c
476 230 465 258 443 278 _c
421 298 385 313 335 323 _c
275 335 _l
201 349 148 372 115 404 _c
82 435 66 478 66 534 _c
66 598 88 649 134 686 _c
179 723 242 742 322 742 _c
356 742 390 739 426 733 _c
461 727 497 717 535 705 _c
}_e{_cl}_e}_d
/underscore{500 0 -9 -235 510 -165 _sc
510 -165 _m
510 -235 _l
-9 -235 _l
-9 -165 _l
510 -165 _l
_cl}_d
/a{{613 0 60 -13 522 560 _sc
343 275 _m
270 275 220 266 192 250 _c
164 233 150 205 150 165 _c
150 133 160 107 181 89 _c
202 70 231 61 267 61 _c
317 61 357 78 387 114 _c
417 149 432 196 432 255 _c
432 275 _l
343 275 _l
522 312 _m
522 0 _l
432 0 _l
432 83 _l
411 49 385 25 355 10 _c
325 -5 287 -13 243 -13 _c
187 -13 142 2 109 33 _c
76 64 60 106 60 159 _c
}_e{60 220 80 266 122 298 _c
163 329 224 345 306 345 _c
432 345 _l
432 354 _l
432 395 418 427 391 450 _c
364 472 326 484 277 484 _c
245 484 215 480 185 472 _c
155 464 127 453 100 439 _c
100 522 _l
132 534 164 544 195 550 _c
226 556 256 560 286 560 _c
365 560 424 539 463 498 _c
502 457 522 395 522 312 _c
_cl}_e}_d
/b{{635 0 91 -13 580 760 _sc
487 273 _m
487 339 473 390 446 428 _c
418 466 381 485 334 485 _c
286 485 249 466 222 428 _c
194 390 181 339 181 273 _c
181 207 194 155 222 117 _c
249 79 286 61 334 61 _c
381 61 418 79 446 117 _c
473 155 487 207 487 273 _c
181 464 _m
199 496 223 520 252 536 _c
281 552 316 560 356 560 _c
422 560 476 533 518 481 _c
559 428 580 359 580 273 _c
}_e{580 187 559 117 518 65 _c
476 13 422 -13 356 -13 _c
316 -13 281 -5 252 10 _c
223 25 199 49 181 82 _c
181 0 _l
91 0 _l
91 760 _l
181 760 _l
181 464 _l
_cl}_e}_d
/c{{550 0 55 -13 488 560 _sc
488 526 _m
488 442 _l
462 456 437 466 411 473 _c
385 480 360 484 334 484 _c
276 484 230 465 198 428 _c
166 391 150 339 150 273 _c
150 206 166 154 198 117 _c
230 80 276 62 334 62 _c
360 62 385 65 411 72 _c
437 79 462 90 488 104 _c
488 21 _l
462 9 436 0 410 -5 _c
383 -10 354 -13 324 -13 _c
242 -13 176 12 128 64 _c
}_e{79 115 55 185 55 273 _c
55 362 79 432 128 483 _c
177 534 244 560 330 560 _c
358 560 385 557 411 551 _c
437 545 463 537 488 526 _c
_cl}_e}_d
/d{{635 0 55 -13 544 760 _sc
454 464 _m
454 760 _l
544 760 _l
544 0 _l
454 0 _l
454 82 _l
435 49 411 25 382 10 _c
353 -5 319 -13 279 -13 _c
213 -13 159 13 117 65 _c
75 117 55 187 55 273 _c
55 359 75 428 117 481 _c
159 533 213 560 279 560 _c
319 560 353 552 382 536 _c
411 520 435 496 454 464 _c
148 273 _m
148 207 161 155 188 117 _c
215 79 253 61 301 61 _c
}_e{348 61 385 79 413 117 _c
440 155 454 207 454 273 _c
454 339 440 390 413 428 _c
385 466 348 485 301 485 _c
253 485 215 466 188 428 _c
161 390 148 339 148 273 _c
_cl}_e}_d
/e{{615 0 55 -13 562 560 _sc
562 296 _m
562 252 _l
149 252 _l
153 190 171 142 205 110 _c
238 78 284 62 344 62 _c
378 62 412 66 444 74 _c
476 82 509 95 541 113 _c
541 28 _l
509 14 476 3 442 -3 _c
408 -9 373 -13 339 -13 _c
251 -13 182 12 131 62 _c
80 112 55 181 55 268 _c
55 357 79 428 127 481 _c
175 533 241 560 323 560 _c
397 560 455 536 498 489 _c
}_e{540 441 562 377 562 296 _c
472 322 _m
471 371 457 410 431 440 _c
404 469 368 484 324 484 _c
274 484 234 469 204 441 _c
174 413 156 373 152 322 _c
472 322 _l
_cl}_e}_d
/g{{635 0 55 -207 544 560 _sc
454 280 _m
454 344 440 395 414 431 _c
387 467 349 485 301 485 _c
253 485 215 467 188 431 _c
161 395 148 344 148 280 _c
148 215 161 165 188 129 _c
215 93 253 75 301 75 _c
349 75 387 93 414 129 _c
440 165 454 215 454 280 _c
544 68 _m
544 -24 523 -93 482 -139 _c
440 -184 377 -207 292 -207 _c
260 -207 231 -204 203 -200 _c
175 -195 147 -188 121 -178 _c
}_e{121 -91 _l
147 -105 173 -115 199 -122 _c
225 -129 251 -133 278 -133 _c
336 -133 380 -117 410 -87 _c
439 -56 454 -10 454 52 _c
454 96 _l
435 64 411 40 382 24 _c
353 8 319 0 279 0 _c
211 0 157 25 116 76 _c
75 127 55 195 55 280 _c
55 364 75 432 116 483 _c
157 534 211 560 279 560 _c
319 560 353 552 382 536 _c
411 520 435 496 454 464 _c
454 547 _l
544 547 _l
}_e{544 68 _l
_cl}_e}_d
/i{278 0 94 0 184 760 _sc
94 547 _m
184 547 _l
184 0 _l
94 0 _l
94 547 _l
94 760 _m
184 760 _l
184 646 _l
94 646 _l
94 760 _l
_cl}_d
/l{278 0 94 0 184 760 _sc
94 760 _m
184 760 _l
184 0 _l
94 0 _l
94 760 _l
_cl}_d
/m{{974 0 91 0 889 560 _sc
520 442 _m
542 482 569 511 600 531 _c
631 550 668 560 711 560 _c
767 560 811 540 842 500 _c
873 460 889 403 889 330 _c
889 0 _l
799 0 _l
799 327 _l
799 379 789 418 771 444 _c
752 469 724 482 686 482 _c
639 482 602 466 575 435 _c
548 404 535 362 535 309 _c
535 0 _l
445 0 _l
445 327 _l
445 379 435 418 417 444 _c
398 469 369 482 331 482 _c
}_e{285 482 248 466 221 435 _c
194 404 181 362 181 309 _c
181 0 _l
91 0 _l
91 547 _l
181 547 _l
181 462 _l
201 495 226 520 255 536 _c
283 552 317 560 357 560 _c
397 560 430 550 458 530 _c
486 510 506 480 520 442 _c
_cl}_e}_d
/n{634 0 91 0 549 560 _sc
549 330 _m
549 0 _l
459 0 _l
459 327 _l
459 379 448 417 428 443 _c
408 469 378 482 338 482 _c
289 482 251 466 223 435 _c
195 404 181 362 181 309 _c
181 0 _l
91 0 _l
91 547 _l
181 547 _l
181 462 _l
202 494 227 519 257 535 _c
286 551 320 560 358 560 _c
420 560 468 540 500 501 _c
532 462 549 405 549 330 _c
_cl}_d
/o{612 0 55 -13 557 560 _sc
306 484 _m
258 484 220 465 192 427 _c
164 389 150 338 150 273 _c
150 207 163 156 191 118 _c
219 80 257 62 306 62 _c
354 62 392 80 420 118 _c
448 156 462 207 462 273 _c
462 337 448 389 420 427 _c
392 465 354 484 306 484 _c
306 560 _m
384 560 445 534 490 484 _c
534 433 557 363 557 273 _c
557 183 534 113 490 63 _c
445 12 384 -13 306 -13 _c
227 -13 165 12 121 63 _c
77 113 55 183 55 273 _c
55 363 77 433 121 484 _c
165 534 227 560 306 560 _c
_cl}_d
/r{411 0 91 0 411 560 _sc
411 463 _m
401 469 390 473 378 476 _c
366 478 353 480 339 480 _c
288 480 249 463 222 430 _c
194 397 181 350 181 288 _c
181 0 _l
91 0 _l
91 547 _l
181 547 _l
181 462 _l
199 495 224 520 254 536 _c
284 552 321 560 365 560 _c
371 560 378 559 386 559 _c
393 558 401 557 411 555 _c
411 463 _l
_cl}_d
/s{{521 0 54 -13 472 560 _sc
443 531 _m
443 446 _l
417 458 391 468 364 475 _c
336 481 308 485 279 485 _c
234 485 200 478 178 464 _c
156 450 145 430 145 403 _c
145 382 153 366 169 354 _c
185 342 217 330 265 320 _c
296 313 _l
360 299 405 279 432 255 _c
458 230 472 195 472 151 _c
472 100 452 60 412 31 _c
372 1 316 -13 246 -13 _c
216 -13 186 -10 154 -5 _c
}_e{122 0 89 8 54 20 _c
54 113 _l
87 95 120 82 152 74 _c
184 65 216 61 248 61 _c
290 61 323 68 346 82 _c
368 96 380 117 380 144 _c
380 168 371 187 355 200 _c
339 213 303 226 247 238 _c
216 245 _l
160 257 119 275 95 299 _c
70 323 58 356 58 399 _c
58 450 76 490 112 518 _c
148 546 200 560 268 560 _c
301 560 332 557 362 552 _c
391 547 418 540 443 531 _c
}_e{_cl}_e}_d
/t{392 0 27 0 368 702 _sc
183 702 _m
183 547 _l
368 547 _l
368 477 _l
183 477 _l
183 180 _l
183 135 189 106 201 94 _c
213 81 238 75 276 75 _c
368 75 _l
368 0 _l
276 0 _l
206 0 158 13 132 39 _c
106 65 93 112 93 180 _c
93 477 _l
27 477 _l
27 547 _l
93 547 _l
93 702 _l
183 702 _l
_cl}_d
/u{634 0 85 -13 543 560 _sc
85 216 _m
85 547 _l
175 547 _l
175 219 _l
175 167 185 129 205 103 _c
225 77 255 64 296 64 _c
344 64 383 79 411 110 _c
439 141 453 183 453 237 _c
453 547 _l
543 547 _l
543 0 _l
453 0 _l
453 84 _l
431 50 405 26 377 10 _c
348 -5 315 -13 277 -13 _c
214 -13 166 6 134 45 _c
101 83 85 140 85 216 _c
311 560 _m
311 560 _l
_cl}_d
/acute{500 0 181 616 415 800 _sc
318 800 _m
415 800 _l
256 616 _l
181 616 _l
318 800 _l
_cl}_d
/ntilde{634 0 91 0 549 777 _sc
false CharStrings /n get exec
gsave 74 0 translate
false CharStrings /tilde get exec
grestore }_d
/oacute{612 0 55 -13 557 800 _sc
false CharStrings /o get exec
gsave 56 0 translate
false CharStrings /acute get exec
grestore }_d
/tilde{{500 0 89 639 411 777 _sc
248 669 _m
220 696 _l
212 702 206 707 201 710 _c
195 713 191 715 187 715 _c
174 715 165 709 159 697 _c
153 685 150 665 150 639 _c
89 639 _l
89 683 98 717 115 741 _c
131 765 154 777 184 777 _c
196 777 208 774 218 770 _c
228 765 240 757 252 747 _c
280 720 _l
287 713 293 708 299 705 _c
304 702 309 701 313 701 _c
325 701 334 707 340 719 _c
}_e{346 731 349 750 350 777 _c
411 777 _l
410 733 401 699 385 675 _c
368 651 345 639 316 639 _c
303 639 291 641 281 646 _c
271 650 260 658 248 669 _c
_cl}_e}_d
/minus{838 0 106 272 732 355 _sc
106 355 _m
732 355 _l
732 272 _l
106 272 _l
106 355 _l
_cl}_d
end readonly def

/BuildGlyph
 {exch begin
 CharStrings exch
 2 copy known not{pop /.notdef}if
 true 3 1 roll get exec
 end}_d

/BuildChar {
 1 index /Encoding get exch get
 1 index /BuildGlyph get exec
}_d

FontName currentdict end definefont pop
end
%%EndProlog
mpldict begin
75.6 223.2 translate
460.8 345.6 0 0 clipbox
gsave
0 0 m
460.8 0 l
460.8 345.6 l
0 345.6 l
cl
1.000 setgray
fill
grestore
gsave
50.87 41.96 m
381.58 41.96 l
381.58 311.04 l
50.87 311.04 l
cl
1.000 setgray
fill
grestore
gsave
330.7 269.1 50.87 41.96 clipbox
123.097554 41.96 m
146.379416 41.96 l
146.379416 298.226667 l
123.097554 298.226667 l
cl
0.122 0.467 0.706 setrgbcolor
fill
grestore
gsave
330.7 269.1 50.87 41.96 clipbox
146.379416 41.96 m
169.661277 41.96 l
169.661277 63.601823 l
146.379416 63.601823 l
cl
0.122 0.467 0.706 setrgbcolor
fill
grestore
gsave
330.7 269.1 50.87 41.96 clipbox
169.661277 41.96 m
192.943139 41.96 l
192.943139 50.548025 l
169.661277 50.548025 l
cl
0.122 0.467 0.706 setrgbcolor
fill
grestore
gsave
330.7 269.1 50.87 41.96 clipbox
192.943139 41.96 m
216.225 41.96 l
216.225 41.96 l
192.943139 41.96 l
cl
0.122 0.467 0.706 setrgbcolor
fill
grestore
gsave
330.7 269.1 50.87 41.96 clipbox
216.225 41.96 m
239.506861 41.96 l
239.506861 43.334084 l
216.225 43.334084 l
cl
0.122 0.467 0.706 setrgbcolor
fill
grestore
gsave
330.7 269.1 50.87 41.96 clipbox
239.506861 41.96 m
262.788723 41.96 l
262.788723 43.677605 l
239.506861 43.677605 l
cl
0.122 0.467 0.706 setrgbcolor
fill
grestore
gsave
330.7 269.1 50.87 41.96 clipbox
262.788723 41.96 m
286.070584 41.96 l
286.070584 45.051689 l
262.788723 45.051689 l
cl
0.122 0.467 0.706 setrgbcolor
fill
grestore
gsave
330.7 269.1 50.87 41.96 clipbox
286.070584 41.96 m
309.352446 41.96 l
309.352446 134.71067 l
286.070584 134.71067 l
cl
0.122 0.467 0.706 setrgbcolor
fill
grestore
0.800 setlinewidth
1 setlinejoin
0 setlinecap
[] 0 setdash
0.000 setgray
gsave
/o {
gsave
newpath
translate
0.8 setlinewidth
1 setlinejoin
0 setlinecap
0 0 m
0 -3.5 l

gsave
0.000 setgray
fill
grestore
stroke
grestore
} bind def
66.1374 41.96 o
grestore
/DejaVuSans findfont
10.000 scalefont
setfont
gsave
46.051508 27.366250 translate
0.000000 rotate
0.000000 0.000000 m /minus glyphshow
8.378906 0.000000 m /two glyphshow
14.741211 0.000000 m /zero glyphshow
21.103516 0.000000 m /zero glyphshow
27.465820 0.000000 m /zero glyphshow
33.828125 0.000000 m /zero glyphshow
grestore
gsave
/o {
gsave
newpath
translate
0.8 setlinewidth
1 setlinejoin
0 setlinecap
0 0 m
0 -3.5 l

gsave
0.000 setgray
fill
grestore
stroke
grestore
} bind def
123.007 41.96 o
grestore
gsave
119.826876 27.366250 translate
0.000000 rotate
0.000000 0.000000 m /zero glyphshow
grestore
gsave
/o {
gsave
newpath
translate
0.8 setlinewidth
1 setlinejoin
0 setlinecap
0 0 m
0 -3.5 l

gsave
0.000 setgray
fill
grestore
stroke
grestore
} bind def
179.876 41.96 o
grestore
gsave
163.977244 27.366250 translate
0.000000 rotate
0.000000 0.000000 m /two glyphshow
6.362305 0.000000 m /zero glyphshow
12.724609 0.000000 m /zero glyphshow
19.086914 0.000000 m /zero glyphshow
25.449219 0.000000 m /zero glyphshow
grestore
gsave
/o {
gsave
newpath
translate
0.8 setlinewidth
1 setlinejoin
0 setlinecap
0 0 m
0 -3.5 l

gsave
0.000 setgray
fill
grestore
stroke
grestore
} bind def
236.745 41.96 o
grestore
gsave
220.846362 27.366250 translate
0.000000 rotate
0.000000 0.000000 m /four glyphshow
6.362305 0.000000 m /zero glyphshow
12.724609 0.000000 m /zero glyphshow
19.086914 0.000000 m /zero glyphshow
25.449219 0.000000 m /zero glyphshow
grestore
gsave
/o {
gsave
newpath
translate
0.8 setlinewidth
1 setlinejoin
0 setlinecap
0 0 m
0 -3.5 l

gsave
0.000 setgray
fill
grestore
stroke
grestore
} bind def
293.614 41.96 o
grestore
gsave
277.715480 27.366250 translate
0.000000 rotate
0.000000 0.000000 m /six glyphshow
6.362305 0.000000 m /zero glyphshow
12.724609 0.000000 m /zero glyphshow
19.086914 0.000000 m /zero glyphshow
25.449219 0.000000 m /zero glyphshow
grestore
gsave
/o {
gsave
newpath
translate
0.8 setlinewidth
1 setlinejoin
0 setlinecap
0 0 m
0 -3.5 l

gsave
0.000 setgray
fill
grestore
stroke
grestore
} bind def
350.483 41.96 o
grestore
gsave
334.584598 27.366250 translate
0.000000 rotate
0.000000 0.000000 m /eight glyphshow
6.362305 0.000000 m /zero glyphshow
12.724609 0.000000 m /zero glyphshow
19.086914 0.000000 m /zero glyphshow
25.449219 0.000000 m /zero glyphshow
grestore
gsave
181.185938 13.522500 translate
0.000000 rotate
0.000000 0.000000 m /S glyphshow
6.347656 0.000000 m /e glyphshow
12.500000 0.000000 m /ntilde glyphshow
18.837891 0.000000 m /a glyphshow
24.965820 0.000000 m /l glyphshow
27.744141 0.000000 m /space glyphshow
30.922852 0.000000 m /O glyphshow
38.793945 0.000000 m /r glyphshow
42.905273 0.000000 m /i glyphshow
45.683594 0.000000 m /g glyphshow
52.031250 0.000000 m /i glyphshow
54.809570 0.000000 m /n glyphshow
61.147461 0.000000 m /a glyphshow
67.275391 0.000000 m /l glyphshow
grestore
gsave
/o {
gsave
newpath
translate
0.8 setlinewidth
1 setlinejoin
0 setlinecap
0 0 m
-3.5 0 l

gsave
0.000 setgray
fill
grestore
stroke
grestore
} bind def
50.87 41.96 o
grestore
gsave
37.510625 38.163125 translate
0.000000 rotate
0.000000 0.000000 m /zero glyphshow
grestore
gsave
/o {
gsave
newpath
translate
0.8 setlinewidth
1 setlinejoin
0 setlinecap
0 0 m
-3.5 0 l

gsave
0.000 setgray
fill
grestore
stroke
grestore
} bind def
50.87 76.3121 o
grestore
gsave
24.791875 72.515225 translate
0.000000 rotate
0.000000 0.000000 m /one glyphshow
6.362305 0.000000 m /zero glyphshow
12.724609 0.000000 m /zero glyphshow
grestore
gsave
/o {
gsave
newpath
translate
0.8 setlinewidth
1 setlinejoin
0 setlinecap
0 0 m
-3.5 0 l

gsave
0.000 setgray
fill
grestore
stroke
grestore
} bind def
50.87 110.664 o
grestore
gsave
24.791875 106.867325 translate
0.000000 rotate
0.000000 0.000000 m /two glyphshow
6.362305 0.000000 m /zero glyphshow
12.724609 0.000000 m /zero glyphshow
grestore
gsave
/o {
gsave
newpath
translate
0.8 setlinewidth
1 setlinejoin
0 setlinecap
0 0 m
-3.5 0 l

gsave
0.000 setgray
fill
grestore
stroke
grestore
} bind def
50.87 145.016 o
grestore
gsave
24.791875 141.219425 translate
0.000000 rotate
0.000000 0.000000 m /three glyphshow
6.362305 0.000000 m /zero glyphshow
12.724609 0.000000 m /zero glyphshow
grestore
gsave
/o {
gsave
newpath
translate
0.8 setlinewidth
1 setlinejoin
0 setlinecap
0 0 m
-3.5 0 l

gsave
0.000 setgray
fill
grestore
stroke
grestore
} bind def
50.87 179.368 o
grestore
gsave
24.791875 175.571525 translate
0.000000 rotate
0.000000 0.000000 m /four glyphshow
6.362305 0.000000 m /zero glyphshow
12.724609 0.000000 m /zero glyphshow
grestore
gsave
/o {
gsave
newpath
translate
0.8 setlinewidth
1 setlinejoin
0 setlinecap
0 0 m
-3.5 0 l

gsave
0.000 setgray
fill
grestore
stroke
grestore
} bind def
50.87 213.721 o
grestore
gsave
24.791875 209.923625 translate
0.000000 rotate
0.000000 0.000000 m /five glyphshow
6.362305 0.000000 m /zero glyphshow
12.724609 0.000000 m /zero glyphshow
grestore
gsave
/o {
gsave
newpath
translate
0.8 setlinewidth
1 setlinejoin
0 setlinecap
0 0 m
-3.5 0 l

gsave
0.000 setgray
fill
grestore
stroke
grestore
} bind def
50.87 248.073 o
grestore
gsave
24.791875 244.275726 translate
0.000000 rotate
0.000000 0.000000 m /six glyphshow
6.362305 0.000000 m /zero glyphshow
12.724609 0.000000 m /zero glyphshow
grestore
gsave
/o {
gsave
newpath
translate
0.8 setlinewidth
1 setlinejoin
0 setlinecap
0 0 m
-3.5 0 l

gsave
0.000 setgray
fill
grestore
stroke
grestore
} bind def
50.87 282.425 o
grestore
gsave
24.791875 278.627826 translate
0.000000 rotate
0.000000 0.000000 m /seven glyphshow
6.362305 0.000000 m /zero glyphshow
12.724609 0.000000 m /zero glyphshow
grestore
gsave
18.713750 132.976562 translate
90.000000 rotate
0.000000 0.000000 m /F glyphshow
5.751953 0.000000 m /r glyphshow
9.863281 0.000000 m /e glyphshow
16.015625 0.000000 m /c glyphshow
21.513672 0.000000 m /u glyphshow
27.851562 0.000000 m /e glyphshow
34.003906 0.000000 m /n glyphshow
40.341797 0.000000 m /c glyphshow
45.839844 0.000000 m /i glyphshow
48.618164 0.000000 m /a glyphshow
54.746094 0.000000 m /space glyphshow
57.924805 0.000000 m /D glyphshow
65.625000 0.000000 m /a glyphshow
71.752930 0.000000 m /t glyphshow
75.673828 0.000000 m /o glyphshow
81.791992 0.000000 m /s glyphshow
grestore
0 setlinejoin
2 setlinecap
[] 0 setdash
gsave
50.87 41.96 m
50.87 311.04 l
stroke
grestore
gsave
381.58 41.96 m
381.58 311.04 l
stroke
grestore
gsave
50.87 41.96 m
381.58 41.96 l
stroke
grestore
gsave
50.87 311.04 m
381.58 311.04 l
stroke
grestore
1 setlinejoin
0 setlinecap
[] 0 setdash
gsave
/o {
gsave
newpath
translate
0.8 setlinewidth
1 setlinejoin
0 setlinecap
0 0 m
3.5 0 l

gsave
0.000 setgray
fill
grestore
stroke
grestore
} bind def
381.58 41.96 o
grestore
gsave
388.580000 38.163125 translate
0.000000 rotate
0.000000 0.000000 m /zero glyphshow
6.362305 0.000000 m /period glyphshow
9.541016 0.000000 m /zero glyphshow
15.903320 0.000000 m /zero glyphshow
22.265625 0.000000 m /zero glyphshow
28.627930 0.000000 m /zero glyphshow
34.990234 0.000000 m /zero glyphshow
41.352539 0.000000 m /zero glyphshow
grestore
gsave
/o {
gsave
newpath
translate
0.8 setlinewidth
1 setlinejoin
0 setlinecap
0 0 m
3.5 0 l

gsave
0.000 setgray
fill
grestore
stroke
grestore
} bind def
381.58 74.511 o
grestore
gsave
388.580000 70.714109 translate
0.000000 rotate
0.000000 0.000000 m /zero glyphshow
6.362305 0.000000 m /period glyphshow
9.541016 0.000000 m /zero glyphshow
15.903320 0.000000 m /zero glyphshow
22.265625 0.000000 m /zero glyphshow
28.627930 0.000000 m /zero glyphshow
34.990234 0.000000 m /zero glyphshow
41.352539 0.000000 m /five glyphshow
grestore
gsave
/o {
gsave
newpath
translate
0.8 setlinewidth
1 setlinejoin
0 setlinecap
0 0 m
3.5 0 l

gsave
0.000 setgray
fill
grestore
stroke
grestore
} bind def
381.58 107.062 o
grestore
gsave
388.580000 103.265092 translate
0.000000 rotate
0.000000 0.000000 m /zero glyphshow
6.362305 0.000000 m /period glyphshow
9.541016 0.000000 m /zero glyphshow
15.903320 0.000000 m /zero glyphshow
22.265625 0.000000 m /zero glyphshow
28.627930 0.000000 m /zero glyphshow
34.990234 0.000000 m /one glyphshow
41.352539 0.000000 m /zero glyphshow
grestore
gsave
/o {
gsave
newpath
translate
0.8 setlinewidth
1 setlinejoin
0 setlinecap
0 0 m
3.5 0 l

gsave
0.000 setgray
fill
grestore
stroke
grestore
} bind def
381.58 139.613 o
grestore
gsave
388.580000 135.816076 translate
0.000000 rotate
0.000000 0.000000 m /zero glyphshow
6.362305 0.000000 m /period glyphshow
9.541016 0.000000 m /zero glyphshow
15.903320 0.000000 m /zero glyphshow
22.265625 0.000000 m /zero glyphshow
28.627930 0.000000 m /zero glyphshow
34.990234 0.000000 m /one glyphshow
41.352539 0.000000 m /five glyphshow
grestore
gsave
/o {
gsave
newpath
translate
0.8 setlinewidth
1 setlinejoin
0 setlinecap
0 0 m
3.5 0 l

gsave
0.000 setgray
fill
grestore
stroke
grestore
} bind def
381.58 172.164 o
grestore
gsave
388.580000 168.367060 translate
0.000000 rotate
0.000000 0.000000 m /zero glyphshow
6.362305 0.000000 m /period glyphshow
9.541016 0.000000 m /zero glyphshow
15.903320 0.000000 m /zero glyphshow
22.265625 0.000000 m /zero glyphshow
28.627930 0.000000 m /zero glyphshow
34.990234 0.000000 m /two glyphshow
41.352539 0.000000 m /zero glyphshow
grestore
gsave
/o {
gsave
newpath
translate
0.8 setlinewidth
1 setlinejoin
0 setlinecap
0 0 m
3.5 0 l

gsave
0.000 setgray
fill
grestore
stroke
grestore
} bind def
381.58 204.715 o
grestore
gsave
388.580000 200.918043 translate
0.000000 rotate
0.000000 0.000000 m /zero glyphshow
6.362305 0.000000 m /period glyphshow
9.541016 0.000000 m /zero glyphshow
15.903320 0.000000 m /zero glyphshow
22.265625 0.000000 m /zero glyphshow
28.627930 0.000000 m /zero glyphshow
34.990234 0.000000 m /two glyphshow
41.352539 0.000000 m /five glyphshow
grestore
gsave
/o {
gsave
newpath
translate
0.8 setlinewidth
1 setlinejoin
0 setlinecap
0 0 m
3.5 0 l

gsave
0.000 setgray
fill
grestore
stroke
grestore
} bind def
381.58 237.266 o
grestore
gsave
388.580000 233.469027 translate
0.000000 rotate
0.000000 0.000000 m /zero glyphshow
6.362305 0.000000 m /period glyphshow
9.541016 0.000000 m /zero glyphshow
15.903320 0.000000 m /zero glyphshow
22.265625 0.000000 m /zero glyphshow
28.627930 0.000000 m /zero glyphshow
34.990234 0.000000 m /three glyphshow
41.352539 0.000000 m /zero glyphshow
grestore
gsave
/o {
gsave
newpath
translate
0.8 setlinewidth
1 setlinejoin
0 setlinecap
0 0 m
3.5 0 l

gsave
0.000 setgray
fill
grestore
stroke
grestore
} bind def
381.58 269.817 o
grestore
gsave
388.580000 266.020011 translate
0.000000 rotate
0.000000 0.000000 m /zero glyphshow
6.362305 0.000000 m /period glyphshow
9.541016 0.000000 m /zero glyphshow
15.903320 0.000000 m /zero glyphshow
22.265625 0.000000 m /zero glyphshow
28.627930 0.000000 m /zero glyphshow
34.990234 0.000000 m /three glyphshow
41.352539 0.000000 m /five glyphshow
grestore
gsave
/o {
gsave
newpath
translate
0.8 setlinewidth
1 setlinejoin
0 setlinecap
0 0 m
3.5 0 l

gsave
0.000 setgray
fill
grestore
stroke
grestore
} bind def
381.58 302.368 o
grestore
gsave
388.580000 298.570994 translate
0.000000 rotate
0.000000 0.000000 m /zero glyphshow
6.362305 0.000000 m /period glyphshow
9.541016 0.000000 m /zero glyphshow
15.903320 0.000000 m /zero glyphshow
22.265625 0.000000 m /zero glyphshow
28.627930 0.000000 m /zero glyphshow
34.990234 0.000000 m /four glyphshow
41.352539 0.000000 m /zero glyphshow
grestore
gsave
447.876875 127.734375 translate
90.000000 rotate
0.000000 0.000000 m /P glyphshow
6.030273 0.000000 m /r glyphshow
10.141602 0.000000 m /o glyphshow
16.259766 0.000000 m /b glyphshow
22.607422 0.000000 m /a glyphshow
28.735352 0.000000 m /b glyphshow
35.083008 0.000000 m /i glyphshow
37.861328 0.000000 m /l glyphshow
40.639648 0.000000 m /i glyphshow
43.417969 0.000000 m /d glyphshow
49.765625 0.000000 m /a glyphshow
55.893555 0.000000 m /d glyphshow
62.241211 0.000000 m /space glyphshow
65.419922 0.000000 m /K glyphshow
71.977539 0.000000 m /e glyphshow
78.129883 0.000000 m /r glyphshow
82.241211 0.000000 m /n glyphshow
88.579102 0.000000 m /e glyphshow
94.731445 0.000000 m /l glyphshow
grestore
1.500 setlinewidth
2 setlinecap
1.000 0.000 0.000 setrgbcolor
gsave
330.7 269.1 50.87 41.96 clipbox
65.902273 44.059538 m
68.939096 45.332373 l
71.975918 47.243465 l
75.012741 50.033969 l
78.049564 53.995252 l
81.086387 59.460067 l
84.123209 66.783262 l
87.160032 76.310481 l
90.196855 88.335029 l
93.233678 103.045527 l
96.2705 120.469791 l
99.307323 140.423046 l
102.344146 162.470263 l
105.380969 185.912552 l
108.417792 209.805524 l
111.454614 233.0134 l
114.491437 254.296809 l
117.52826 272.425835 l
120.565083 286.304196 l
123.601905 295.086932 l
126.638728 298.273662 l
129.675551 295.762625 l
132.712374 287.856913 l
135.749197 275.222242 l
138.786019 258.803663 l
141.822842 239.715041 l
144.859665 219.118713 l
147.896488 198.112856 l
150.93331 177.641061 l
153.970133 158.433334 l
157.006956 140.981529 l
160.043779 125.546428 l
163.080601 112.189365 l
166.117424 100.818962 l
169.154247 91.243307 l
172.19107 83.219327 l
175.227893 76.49354 l
178.264715 70.831171 l
181.301538 66.033191 l
184.338361 61.942702 l
187.375184 58.443301 l
190.412006 55.452382 l
193.448829 52.912165 l
196.485652 50.780655 l
199.522475 49.023958 l
202.559298 47.610717 l
205.59612 46.508775 l
208.632943 45.683809 l
211.669766 45.099442 l
214.706589 44.718288 l
217.743411 44.503448 l
220.780234 44.420092 l
223.817057 44.436884 l
226.85388 44.527183 l
229.890702 44.669985 l
232.927525 44.850715 l
235.964348 45.061945 l
239.001171 45.304205 l
242.037994 45.586977 l
245.074816 45.929995 l
248.111639 46.364853 l
251.148462 46.936867 l
254.185285 47.70691 l
257.222107 48.752785 l
260.25893 50.16941 l
263.295753 52.066923 l
266.332576 54.565719 l
269.369399 57.787557 l
272.406221 61.842286 l
275.443044 66.810506 l
278.479867 72.72344 l
281.51669 79.542473 l
284.553512 87.141731 l
287.590335 95.297666 l
290.627158 103.689367 l
293.663981 111.912253 l
296.700803 119.505836 l
299.737626 125.993741 l
302.774449 130.931545 l
305.811272 133.955942 l
308.848095 134.827746 l
311.884917 133.46172 l
314.92174 129.938114 l
317.958563 124.493831 l
320.995386 117.494647 l
324.032208 109.393073 l
327.069031 100.678701 l
330.105854 91.828642 l
333.142677 83.264982 l
336.1795 75.324264 l
339.216322 68.241411 l
342.253145 62.147865 l
345.289968 57.081519 l
348.326791 53.004712 l
351.363613 49.826098 l
354.400436 47.422652 l
357.437259 45.658974 l
360.474082 44.402237 l
363.510904 43.53224 l
366.547727 42.946894 l
stroke
grestore
0.800 setlinewidth
0 setlinejoin
[] 0 setdash
0.000 setgray
gsave
50.87 41.96 m
50.87 311.04 l
stroke
grestore
gsave
381.58 41.96 m
381.58 311.04 l
stroke
grestore
gsave
50.87 41.96 m
381.58 41.96 l
stroke
grestore
gsave
50.87 311.04 m
381.58 311.04 l
stroke
grestore
1.000 setlinewidth
0 setlinecap
0.800 setgray
gsave
255.251875 288.368125 m
374.58 288.368125 l
375.913333 288.368125 376.58 289.034792 376.58 290.368125 c
376.58 304.04 l
376.58 305.373333 375.913333 306.04 374.58 306.04 c
255.251875 306.04 l
253.918542 306.04 253.251875 305.373333 253.251875 304.04 c
253.251875 290.368125 l
253.251875 289.034792 253.918542 288.368125 255.251875 288.368125 c
cl
gsave
1.000 setgray
fill
grestore
stroke
grestore
1.500 setlinewidth
1 setlinejoin
2 setlinecap
[] 0 setdash
1.000 0.000 0.000 setrgbcolor
gsave
257.251875 297.94625 m
277.251875 297.94625 l
stroke
grestore
0.000 setgray
gsave
285.251875 294.446250 translate
0.000000 rotate
0.000000 0.000000 m /K glyphshow
6.557617 0.000000 m /e glyphshow
12.709961 0.000000 m /r glyphshow
16.821289 0.000000 m /n glyphshow
23.159180 0.000000 m /e glyphshow
29.311523 0.000000 m /l glyphshow
32.089844 0.000000 m /space glyphshow
35.268555 0.000000 m /G glyphshow
43.017578 0.000000 m /a glyphshow
49.145508 0.000000 m /u glyphshow
55.483398 0.000000 m /s glyphshow
60.693359 0.000000 m /s glyphshow
65.903320 0.000000 m /i glyphshow
68.681641 0.000000 m /a glyphshow
74.809570 0.000000 m /n glyphshow
81.147461 0.000000 m /o glyphshow
grestore
/DejaVuSans findfont
12.000 scalefont
setfont
gsave
57.775000 329.094250 translate
0.000000 rotate
0.000000 0.000000 m /D glyphshow
9.240234 0.000000 m /i glyphshow
12.574219 0.000000 m /s glyphshow
18.826172 0.000000 m /t glyphshow
23.531250 0.000000 m /r glyphshow
28.464844 0.000000 m /i glyphshow
31.798828 0.000000 m /b glyphshow
39.416016 0.000000 m /u glyphshow
47.021484 0.000000 m /c glyphshow
53.619141 0.000000 m /i glyphshow
56.953125 0.000000 m /oacute glyphshow
64.294922 0.000000 m /n glyphshow
71.900391 0.000000 m /space glyphshow
75.714844 0.000000 m /m glyphshow
87.404297 0.000000 m /e glyphshow
94.787109 0.000000 m /d glyphshow
102.404297 0.000000 m /i glyphshow
105.738281 0.000000 m /d glyphshow
113.355469 0.000000 m /a glyphshow
120.708984 0.000000 m /space glyphshow
124.523438 0.000000 m /F glyphshow
131.425781 0.000000 m /six glyphshow
139.060547 0.000000 m /three glyphshow
146.695312 0.000000 m /five glyphshow
154.330078 0.000000 m /underscore glyphshow
160.330078 0.000000 m /M glyphshow
170.683594 0.000000 m /e glyphshow
178.066406 0.000000 m /d glyphshow
185.683594 0.000000 m /i glyphshow
189.017578 0.000000 m /a glyphshow
196.371094 0.000000 m /n glyphshow
203.976562 0.000000 m /space glyphshow
207.791016 0.000000 m /parenleft glyphshow
212.472656 0.000000 m /S glyphshow
220.089844 0.000000 m /o glyphshow
227.431641 0.000000 m /l glyphshow
230.765625 0.000000 m /o glyphshow
238.107422 0.000000 m /space glyphshow
241.921875 0.000000 m /c glyphshow
248.519531 0.000000 m /o glyphshow
255.861328 0.000000 m /n glyphshow
263.466797 0.000000 m /t glyphshow
268.171875 0.000000 m /r glyphshow
273.105469 0.000000 m /o glyphshow
280.447266 0.000000 m /l glyphshow
283.781250 0.000000 m /e glyphshow
291.164062 0.000000 m /s glyphshow
297.416016 0.000000 m /parenright glyphshow
302.097656 0.000000 m /space glyphshow
305.912109 0.000000 m /hyphen glyphshow
310.242188 0.000000 m /space glyphshow
314.056641 0.000000 m /A glyphshow
322.265625 0.000000 m /zero glyphshow
329.900391 0.000000 m /nine glyphshow
337.535156 0.000000 m /seven glyphshow
grestore

end
showpage
