%!PS-Adobe-3.0 EPSF-3.0
%%Title: ../../results/HA20087/A176/histograms/proteins/histogram_A176_intensidad_protein_only_Log2_Median.eps
%%Creator: matplotlib version 3.0.0, http://matplotlib.org/
%%CreationDate: Sat Mar  9 22:14:07 2019
%%Orientation: portrait
%%BoundingBox: 75 223 536 568
%%EndComments
%%BeginProlog
/mpldict 8 dict def
mpldict begin
/m { moveto } bind def
/l { lineto } bind def
/r { rlineto } bind def
/c { curveto } bind def
/cl { closepath } bind def
/box {
m
1 index 0 r
0 exch r
neg 0 r
cl
} bind def
/clipbox {
box
clip
newpath
} bind def
%!PS-Adobe-3.0 Resource-Font
%%Title: DejaVu Sans
%%Copyright: Copyright (c) 2003 by Bitstream, Inc. All Rights Reserved. Copyright (c) 2006 by Tavmjong Bah. All Rights Reserved. DejaVu changes are in public domain 
%%Creator: Converted from TrueType to type 3 by PPR
25 dict begin
/_d{bind def}bind def
/_m{moveto}_d
/_l{lineto}_d
/_cl{closepath eofill}_d
/_c{curveto}_d
/_sc{7 -1 roll{setcachedevice}{pop pop pop pop pop pop}ifelse}_d
/_e{exec}_d
/FontName /DejaVuSans def
/PaintType 0 def
/FontMatrix[.001 0 0 .001 0 0]def
/FontBBox[-1021 -463 1793 1232]def
/FontType 3 def
/Encoding [ /space /period /zero /one /two /three /four /five /six /seven /eight /A /C /D /F /G /I /K /N /P /S /a /b /c /d /e /g /i /l /m /n /o /p /r /s /t /u /y /z /acute /iacute /ntilde /oacute /dotlessi /tilde ] def
/FontInfo 10 dict dup begin
/FamilyName (DejaVu Sans) def
/FullName (DejaVu Sans) def
/Notice (Copyright (c) 2003 by Bitstream, Inc. All Rights Reserved. Copyright (c) 2006 by Tavmjong Bah. All Rights Reserved. DejaVu changes are in public domain ) def
/Weight (Book) def
/Version (Version 2.35) def
/ItalicAngle 0.0 def
/isFixedPitch false def
/UnderlinePosition -130 def
/UnderlineThickness 90 def
end readonly def
/CharStrings 46 dict dup begin
/.notdef 0 def
/space{318 0 0 0 0 0 _sc
}_d
/period{318 0 107 0 210 124 _sc
107 124 _m
210 124 _l
210 0 _l
107 0 _l
107 124 _l
_cl}_d
/zero{636 0 66 -13 570 742 _sc
318 664 _m
267 664 229 639 203 589 _c
177 539 165 464 165 364 _c
165 264 177 189 203 139 _c
229 89 267 64 318 64 _c
369 64 407 89 433 139 _c
458 189 471 264 471 364 _c
471 464 458 539 433 589 _c
407 639 369 664 318 664 _c
318 742 _m
399 742 461 709 505 645 _c
548 580 570 486 570 364 _c
570 241 548 147 505 83 _c
461 19 399 -13 318 -13 _c
236 -13 173 19 130 83 _c
87 147 66 241 66 364 _c
66 486 87 580 130 645 _c
173 709 236 742 318 742 _c
_cl}_d
/one{636 0 110 0 544 729 _sc
124 83 _m
285 83 _l
285 639 _l
110 604 _l
110 694 _l
284 729 _l
383 729 _l
383 83 _l
544 83 _l
544 0 _l
124 0 _l
124 83 _l
_cl}_d
/two{{636 0 73 0 536 742 _sc
192 83 _m
536 83 _l
536 0 _l
73 0 _l
73 83 _l
110 121 161 173 226 239 _c
290 304 331 346 348 365 _c
380 400 402 430 414 455 _c
426 479 433 504 433 528 _c
433 566 419 598 392 622 _c
365 646 330 659 286 659 _c
255 659 222 653 188 643 _c
154 632 117 616 78 594 _c
78 694 _l
118 710 155 722 189 730 _c
223 738 255 742 284 742 _c
}_e{359 742 419 723 464 685 _c
509 647 532 597 532 534 _c
532 504 526 475 515 449 _c
504 422 484 390 454 354 _c
446 344 420 317 376 272 _c
332 227 271 164 192 83 _c
_cl}_e}_d
/three{{636 0 76 -13 556 742 _sc
406 393 _m
453 383 490 362 516 330 _c
542 298 556 258 556 212 _c
556 140 531 84 482 45 _c
432 6 362 -13 271 -13 _c
240 -13 208 -10 176 -4 _c
144 1 110 10 76 22 _c
76 117 _l
103 101 133 89 166 81 _c
198 73 232 69 268 69 _c
330 69 377 81 409 105 _c
441 129 458 165 458 212 _c
458 254 443 288 413 312 _c
383 336 341 349 287 349 _c
}_e{202 349 _l
202 430 _l
291 430 _l
339 430 376 439 402 459 _c
428 478 441 506 441 543 _c
441 580 427 609 401 629 _c
374 649 336 659 287 659 _c
260 659 231 656 200 650 _c
169 644 135 635 98 623 _c
98 711 _l
135 721 170 729 203 734 _c
235 739 266 742 296 742 _c
370 742 429 725 473 691 _c
517 657 539 611 539 553 _c
539 513 527 479 504 451 _c
481 423 448 403 406 393 _c
_cl}_e}_d
/four{636 0 49 0 580 729 _sc
378 643 _m
129 254 _l
378 254 _l
378 643 _l
352 729 _m
476 729 _l
476 254 _l
580 254 _l
580 172 _l
476 172 _l
476 0 _l
378 0 _l
378 172 _l
49 172 _l
49 267 _l
352 729 _l
_cl}_d
/five{{636 0 77 -13 549 729 _sc
108 729 _m
495 729 _l
495 646 _l
198 646 _l
198 467 _l
212 472 227 476 241 478 _c
255 480 270 482 284 482 _c
365 482 429 459 477 415 _c
525 370 549 310 549 234 _c
549 155 524 94 475 51 _c
426 8 357 -13 269 -13 _c
238 -13 207 -10 175 -6 _c
143 -1 111 6 77 17 _c
77 116 _l
106 100 136 88 168 80 _c
199 72 232 69 267 69 _c
}_e{323 69 368 83 401 113 _c
433 143 450 183 450 234 _c
450 284 433 324 401 354 _c
368 384 323 399 267 399 _c
241 399 214 396 188 390 _c
162 384 135 375 108 363 _c
108 729 _l
_cl}_e}_d
/six{{636 0 70 -13 573 742 _sc
330 404 _m
286 404 251 388 225 358 _c
199 328 186 286 186 234 _c
186 181 199 139 225 109 _c
251 79 286 64 330 64 _c
374 64 409 79 435 109 _c
461 139 474 181 474 234 _c
474 286 461 328 435 358 _c
409 388 374 404 330 404 _c
526 713 _m
526 623 _l
501 635 476 644 451 650 _c
425 656 400 659 376 659 _c
310 659 260 637 226 593 _c
}_e{192 549 172 482 168 394 _c
187 422 211 444 240 459 _c
269 474 301 482 336 482 _c
409 482 467 459 509 415 _c
551 371 573 310 573 234 _c
573 159 550 99 506 54 _c
462 9 403 -13 330 -13 _c
246 -13 181 19 137 83 _c
92 147 70 241 70 364 _c
70 479 97 571 152 639 _c
206 707 280 742 372 742 _c
396 742 421 739 447 735 _c
472 730 498 723 526 713 _c
_cl}_e}_d
/seven{636 0 82 0 551 729 _sc
82 729 _m
551 729 _l
551 687 _l
286 0 _l
183 0 _l
432 646 _l
82 646 _l
82 729 _l
_cl}_d
/eight{{636 0 68 -13 568 742 _sc
318 346 _m
271 346 234 333 207 308 _c
180 283 167 249 167 205 _c
167 161 180 126 207 101 _c
234 76 271 64 318 64 _c
364 64 401 76 428 102 _c
455 127 469 161 469 205 _c
469 249 455 283 429 308 _c
402 333 365 346 318 346 _c
219 388 _m
177 398 144 418 120 447 _c
96 476 85 511 85 553 _c
85 611 105 657 147 691 _c
188 725 245 742 318 742 _c
}_e{390 742 447 725 489 691 _c
530 657 551 611 551 553 _c
551 511 539 476 515 447 _c
491 418 459 398 417 388 _c
464 377 501 355 528 323 _c
554 291 568 251 568 205 _c
568 134 546 80 503 43 _c
459 5 398 -13 318 -13 _c
237 -13 175 5 132 43 _c
89 80 68 134 68 205 _c
68 251 81 291 108 323 _c
134 355 171 377 219 388 _c
183 544 _m
183 506 194 476 218 455 _c
}_e{242 434 275 424 318 424 _c
360 424 393 434 417 455 _c
441 476 453 506 453 544 _c
453 582 441 611 417 632 _c
393 653 360 664 318 664 _c
275 664 242 653 218 632 _c
194 611 183 582 183 544 _c
_cl}_e}_d
/A{684 0 8 0 676 729 _sc
342 632 _m
208 269 _l
476 269 _l
342 632 _l
286 729 _m
398 729 _l
676 0 _l
573 0 _l
507 187 _l
178 187 _l
112 0 _l
8 0 _l
286 729 _l
_cl}_d
/C{{698 0 56 -13 644 742 _sc
644 673 _m
644 569 _l
610 599 575 622 537 638 _c
499 653 460 661 418 661 _c
334 661 270 635 226 584 _c
182 533 160 460 160 364 _c
160 268 182 194 226 143 _c
270 92 334 67 418 67 _c
460 67 499 74 537 90 _c
575 105 610 128 644 159 _c
644 56 _l
609 32 572 15 534 4 _c
496 -7 455 -13 412 -13 _c
302 -13 215 20 151 87 _c
}_e{87 154 56 246 56 364 _c
56 481 87 573 151 641 _c
215 708 302 742 412 742 _c
456 742 497 736 535 725 _c
573 713 610 696 644 673 _c
_cl}_e}_d
/D{770 0 98 0 711 729 _sc
197 648 _m
197 81 _l
316 81 _l
416 81 490 103 537 149 _c
583 195 607 267 607 365 _c
607 463 583 534 537 580 _c
490 625 416 648 316 648 _c
197 648 _l
98 729 _m
301 729 _l
442 729 546 699 612 641 _c
678 582 711 490 711 365 _c
711 239 677 147 611 88 _c
545 29 441 0 301 0 _c
98 0 _l
98 729 _l
_cl}_d
/F{575 0 98 0 517 729 _sc
98 729 _m
517 729 _l
517 646 _l
197 646 _l
197 431 _l
486 431 _l
486 348 _l
197 348 _l
197 0 _l
98 0 _l
98 729 _l
_cl}_d
/G{{775 0 56 -13 693 742 _sc
595 104 _m
595 300 _l
434 300 _l
434 381 _l
693 381 _l
693 68 _l
655 40 613 20 567 7 _c
521 -6 472 -13 420 -13 _c
306 -13 216 20 152 86 _c
88 152 56 245 56 364 _c
56 482 88 575 152 642 _c
216 708 306 742 420 742 _c
467 742 512 736 555 724 _c
598 712 638 695 674 673 _c
674 568 _l
637 598 598 621 557 637 _c
516 653 473 661 428 661 _c
}_e{338 661 271 636 227 586 _c
182 536 160 462 160 364 _c
160 265 182 191 227 141 _c
271 91 338 67 428 67 _c
462 67 493 70 521 76 _c
549 82 573 91 595 104 _c
_cl}_e}_d
/I{295 0 98 0 197 729 _sc
98 729 _m
197 729 _l
197 0 _l
98 0 _l
98 729 _l
_cl}_d
/K{656 0 98 0 677 729 _sc
98 729 _m
197 729 _l
197 421 _l
524 729 _l
651 729 _l
289 389 _l
677 0 _l
547 0 _l
197 351 _l
197 0 _l
98 0 _l
98 729 _l
_cl}_d
/N{748 0 98 0 650 729 _sc
98 729 _m
231 729 _l
554 119 _l
554 729 _l
650 729 _l
650 0 _l
517 0 _l
194 610 _l
194 0 _l
98 0 _l
98 729 _l
_cl}_d
/P{603 0 98 0 569 729 _sc
197 648 _m
197 374 _l
321 374 _l
367 374 402 385 427 409 _c
452 433 465 467 465 511 _c
465 555 452 588 427 612 _c
402 636 367 648 321 648 _c
197 648 _l
98 729 _m
321 729 _l
402 729 464 710 506 673 _c
548 636 569 582 569 511 _c
569 439 548 384 506 348 _c
464 311 402 293 321 293 _c
197 293 _l
197 0 _l
98 0 _l
98 729 _l
_cl}_d
/S{{635 0 66 -13 579 742 _sc
535 705 _m
535 609 _l
497 627 462 640 429 649 _c
395 657 363 662 333 662 _c
279 662 237 651 208 631 _c
179 610 165 580 165 542 _c
165 510 174 485 194 469 _c
213 452 250 439 304 429 _c
364 417 _l
437 403 491 378 526 343 _c
561 307 579 260 579 201 _c
579 130 555 77 508 41 _c
460 5 391 -13 300 -13 _c
265 -13 228 -9 189 -2 _c
}_e{150 5 110 16 69 32 _c
69 134 _l
109 111 148 94 186 83 _c
224 71 262 66 300 66 _c
356 66 399 77 430 99 _c
460 121 476 152 476 194 _c
476 230 465 258 443 278 _c
421 298 385 313 335 323 _c
275 335 _l
201 349 148 372 115 404 _c
82 435 66 478 66 534 _c
66 598 88 649 134 686 _c
179 723 242 742 322 742 _c
356 742 390 739 426 733 _c
461 727 497 717 535 705 _c
}_e{_cl}_e}_d
/a{{613 0 60 -13 522 560 _sc
343 275 _m
270 275 220 266 192 250 _c
164 233 150 205 150 165 _c
150 133 160 107 181 89 _c
202 70 231 61 267 61 _c
317 61 357 78 387 114 _c
417 149 432 196 432 255 _c
432 275 _l
343 275 _l
522 312 _m
522 0 _l
432 0 _l
432 83 _l
411 49 385 25 355 10 _c
325 -5 287 -13 243 -13 _c
187 -13 142 2 109 33 _c
76 64 60 106 60 159 _c
}_e{60 220 80 266 122 298 _c
163 329 224 345 306 345 _c
432 345 _l
432 354 _l
432 395 418 427 391 450 _c
364 472 326 484 277 484 _c
245 484 215 480 185 472 _c
155 464 127 453 100 439 _c
100 522 _l
132 534 164 544 195 550 _c
226 556 256 560 286 560 _c
365 560 424 539 463 498 _c
502 457 522 395 522 312 _c
_cl}_e}_d
/b{{635 0 91 -13 580 760 _sc
487 273 _m
487 339 473 390 446 428 _c
418 466 381 485 334 485 _c
286 485 249 466 222 428 _c
194 390 181 339 181 273 _c
181 207 194 155 222 117 _c
249 79 286 61 334 61 _c
381 61 418 79 446 117 _c
473 155 487 207 487 273 _c
181 464 _m
199 496 223 520 252 536 _c
281 552 316 560 356 560 _c
422 560 476 533 518 481 _c
559 428 580 359 580 273 _c
}_e{580 187 559 117 518 65 _c
476 13 422 -13 356 -13 _c
316 -13 281 -5 252 10 _c
223 25 199 49 181 82 _c
181 0 _l
91 0 _l
91 760 _l
181 760 _l
181 464 _l
_cl}_e}_d
/c{{550 0 55 -13 488 560 _sc
488 526 _m
488 442 _l
462 456 437 466 411 473 _c
385 480 360 484 334 484 _c
276 484 230 465 198 428 _c
166 391 150 339 150 273 _c
150 206 166 154 198 117 _c
230 80 276 62 334 62 _c
360 62 385 65 411 72 _c
437 79 462 90 488 104 _c
488 21 _l
462 9 436 0 410 -5 _c
383 -10 354 -13 324 -13 _c
242 -13 176 12 128 64 _c
}_e{79 115 55 185 55 273 _c
55 362 79 432 128 483 _c
177 534 244 560 330 560 _c
358 560 385 557 411 551 _c
437 545 463 537 488 526 _c
_cl}_e}_d
/d{{635 0 55 -13 544 760 _sc
454 464 _m
454 760 _l
544 760 _l
544 0 _l
454 0 _l
454 82 _l
435 49 411 25 382 10 _c
353 -5 319 -13 279 -13 _c
213 -13 159 13 117 65 _c
75 117 55 187 55 273 _c
55 359 75 428 117 481 _c
159 533 213 560 279 560 _c
319 560 353 552 382 536 _c
411 520 435 496 454 464 _c
148 273 _m
148 207 161 155 188 117 _c
215 79 253 61 301 61 _c
}_e{348 61 385 79 413 117 _c
440 155 454 207 454 273 _c
454 339 440 390 413 428 _c
385 466 348 485 301 485 _c
253 485 215 466 188 428 _c
161 390 148 339 148 273 _c
_cl}_e}_d
/e{{615 0 55 -13 562 560 _sc
562 296 _m
562 252 _l
149 252 _l
153 190 171 142 205 110 _c
238 78 284 62 344 62 _c
378 62 412 66 444 74 _c
476 82 509 95 541 113 _c
541 28 _l
509 14 476 3 442 -3 _c
408 -9 373 -13 339 -13 _c
251 -13 182 12 131 62 _c
80 112 55 181 55 268 _c
55 357 79 428 127 481 _c
175 533 241 560 323 560 _c
397 560 455 536 498 489 _c
}_e{540 441 562 377 562 296 _c
472 322 _m
471 371 457 410 431 440 _c
404 469 368 484 324 484 _c
274 484 234 469 204 441 _c
174 413 156 373 152 322 _c
472 322 _l
_cl}_e}_d
/g{{635 0 55 -207 544 560 _sc
454 280 _m
454 344 440 395 414 431 _c
387 467 349 485 301 485 _c
253 485 215 467 188 431 _c
161 395 148 344 148 280 _c
148 215 161 165 188 129 _c
215 93 253 75 301 75 _c
349 75 387 93 414 129 _c
440 165 454 215 454 280 _c
544 68 _m
544 -24 523 -93 482 -139 _c
440 -184 377 -207 292 -207 _c
260 -207 231 -204 203 -200 _c
175 -195 147 -188 121 -178 _c
}_e{121 -91 _l
147 -105 173 -115 199 -122 _c
225 -129 251 -133 278 -133 _c
336 -133 380 -117 410 -87 _c
439 -56 454 -10 454 52 _c
454 96 _l
435 64 411 40 382 24 _c
353 8 319 0 279 0 _c
211 0 157 25 116 76 _c
75 127 55 195 55 280 _c
55 364 75 432 116 483 _c
157 534 211 560 279 560 _c
319 560 353 552 382 536 _c
411 520 435 496 454 464 _c
454 547 _l
544 547 _l
}_e{544 68 _l
_cl}_e}_d
/i{278 0 94 0 184 760 _sc
94 547 _m
184 547 _l
184 0 _l
94 0 _l
94 547 _l
94 760 _m
184 760 _l
184 646 _l
94 646 _l
94 760 _l
_cl}_d
/l{278 0 94 0 184 760 _sc
94 760 _m
184 760 _l
184 0 _l
94 0 _l
94 760 _l
_cl}_d
/m{{974 0 91 0 889 560 _sc
520 442 _m
542 482 569 511 600 531 _c
631 550 668 560 711 560 _c
767 560 811 540 842 500 _c
873 460 889 403 889 330 _c
889 0 _l
799 0 _l
799 327 _l
799 379 789 418 771 444 _c
752 469 724 482 686 482 _c
639 482 602 466 575 435 _c
548 404 535 362 535 309 _c
535 0 _l
445 0 _l
445 327 _l
445 379 435 418 417 444 _c
398 469 369 482 331 482 _c
}_e{285 482 248 466 221 435 _c
194 404 181 362 181 309 _c
181 0 _l
91 0 _l
91 547 _l
181 547 _l
181 462 _l
201 495 226 520 255 536 _c
283 552 317 560 357 560 _c
397 560 430 550 458 530 _c
486 510 506 480 520 442 _c
_cl}_e}_d
/n{634 0 91 0 549 560 _sc
549 330 _m
549 0 _l
459 0 _l
459 327 _l
459 379 448 417 428 443 _c
408 469 378 482 338 482 _c
289 482 251 466 223 435 _c
195 404 181 362 181 309 _c
181 0 _l
91 0 _l
91 547 _l
181 547 _l
181 462 _l
202 494 227 519 257 535 _c
286 551 320 560 358 560 _c
420 560 468 540 500 501 _c
532 462 549 405 549 330 _c
_cl}_d
/o{612 0 55 -13 557 560 _sc
306 484 _m
258 484 220 465 192 427 _c
164 389 150 338 150 273 _c
150 207 163 156 191 118 _c
219 80 257 62 306 62 _c
354 62 392 80 420 118 _c
448 156 462 207 462 273 _c
462 337 448 389 420 427 _c
392 465 354 484 306 484 _c
306 560 _m
384 560 445 534 490 484 _c
534 433 557 363 557 273 _c
557 183 534 113 490 63 _c
445 12 384 -13 306 -13 _c
227 -13 165 12 121 63 _c
77 113 55 183 55 273 _c
55 363 77 433 121 484 _c
165 534 227 560 306 560 _c
_cl}_d
/p{{635 0 91 -207 580 560 _sc
181 82 _m
181 -207 _l
91 -207 _l
91 547 _l
181 547 _l
181 464 _l
199 496 223 520 252 536 _c
281 552 316 560 356 560 _c
422 560 476 533 518 481 _c
559 428 580 359 580 273 _c
580 187 559 117 518 65 _c
476 13 422 -13 356 -13 _c
316 -13 281 -5 252 10 _c
223 25 199 49 181 82 _c
487 273 _m
487 339 473 390 446 428 _c
418 466 381 485 334 485 _c
}_e{286 485 249 466 222 428 _c
194 390 181 339 181 273 _c
181 207 194 155 222 117 _c
249 79 286 61 334 61 _c
381 61 418 79 446 117 _c
473 155 487 207 487 273 _c
_cl}_e}_d
/r{411 0 91 0 411 560 _sc
411 463 _m
401 469 390 473 378 476 _c
366 478 353 480 339 480 _c
288 480 249 463 222 430 _c
194 397 181 350 181 288 _c
181 0 _l
91 0 _l
91 547 _l
181 547 _l
181 462 _l
199 495 224 520 254 536 _c
284 552 321 560 365 560 _c
371 560 378 559 386 559 _c
393 558 401 557 411 555 _c
411 463 _l
_cl}_d
/s{{521 0 54 -13 472 560 _sc
443 531 _m
443 446 _l
417 458 391 468 364 475 _c
336 481 308 485 279 485 _c
234 485 200 478 178 464 _c
156 450 145 430 145 403 _c
145 382 153 366 169 354 _c
185 342 217 330 265 320 _c
296 313 _l
360 299 405 279 432 255 _c
458 230 472 195 472 151 _c
472 100 452 60 412 31 _c
372 1 316 -13 246 -13 _c
216 -13 186 -10 154 -5 _c
}_e{122 0 89 8 54 20 _c
54 113 _l
87 95 120 82 152 74 _c
184 65 216 61 248 61 _c
290 61 323 68 346 82 _c
368 96 380 117 380 144 _c
380 168 371 187 355 200 _c
339 213 303 226 247 238 _c
216 245 _l
160 257 119 275 95 299 _c
70 323 58 356 58 399 _c
58 450 76 490 112 518 _c
148 546 200 560 268 560 _c
301 560 332 557 362 552 _c
391 547 418 540 443 531 _c
}_e{_cl}_e}_d
/t{392 0 27 0 368 702 _sc
183 702 _m
183 547 _l
368 547 _l
368 477 _l
183 477 _l
183 180 _l
183 135 189 106 201 94 _c
213 81 238 75 276 75 _c
368 75 _l
368 0 _l
276 0 _l
206 0 158 13 132 39 _c
106 65 93 112 93 180 _c
93 477 _l
27 477 _l
27 547 _l
93 547 _l
93 702 _l
183 702 _l
_cl}_d
/u{634 0 85 -13 543 560 _sc
85 216 _m
85 547 _l
175 547 _l
175 219 _l
175 167 185 129 205 103 _c
225 77 255 64 296 64 _c
344 64 383 79 411 110 _c
439 141 453 183 453 237 _c
453 547 _l
543 547 _l
543 0 _l
453 0 _l
453 84 _l
431 50 405 26 377 10 _c
348 -5 315 -13 277 -13 _c
214 -13 166 6 134 45 _c
101 83 85 140 85 216 _c
311 560 _m
311 560 _l
_cl}_d
/y{592 0 30 -207 562 547 _sc
322 -50 _m
296 -114 271 -157 247 -177 _c
223 -197 191 -207 151 -207 _c
79 -207 _l
79 -132 _l
132 -132 _l
156 -132 175 -126 189 -114 _c
203 -102 218 -75 235 -31 _c
251 9 _l
30 547 _l
125 547 _l
296 119 _l
467 547 _l
562 547 _l
322 -50 _l
_cl}_d
/z{525 0 43 0 482 547 _sc
55 547 _m
482 547 _l
482 465 _l
144 72 _l
482 72 _l
482 0 _l
43 0 _l
43 82 _l
381 475 _l
55 475 _l
55 547 _l
_cl}_d
/acute{500 0 181 616 415 800 _sc
318 800 _m
415 800 _l
256 616 _l
181 616 _l
318 800 _l
_cl}_d
/iacute{278 0 70 0 304 800 _sc
gsave -110 0 translate
false CharStrings /acute get exec
grestore false CharStrings /dotlessi get exec
}_d
/ntilde{634 0 91 0 549 777 _sc
false CharStrings /n get exec
gsave 74 0 translate
false CharStrings /tilde get exec
grestore }_d
/oacute{612 0 55 -13 557 800 _sc
false CharStrings /o get exec
gsave 56 0 translate
false CharStrings /acute get exec
grestore }_d
/dotlessi{278 0 94 0 184 560 _sc
94 547 _m
184 547 _l
184 0 _l
94 0 _l
94 547 _l
139 560 _m
139 560 _l
_cl}_d
/tilde{{500 0 89 639 411 777 _sc
248 669 _m
220 696 _l
212 702 206 707 201 710 _c
195 713 191 715 187 715 _c
174 715 165 709 159 697 _c
153 685 150 665 150 639 _c
89 639 _l
89 683 98 717 115 741 _c
131 765 154 777 184 777 _c
196 777 208 774 218 770 _c
228 765 240 757 252 747 _c
280 720 _l
287 713 293 708 299 705 _c
304 702 309 701 313 701 _c
325 701 334 707 340 719 _c
}_e{346 731 349 750 350 777 _c
411 777 _l
410 733 401 699 385 675 _c
368 651 345 639 316 639 _c
303 639 291 641 281 646 _c
271 650 260 658 248 669 _c
_cl}_e}_d
end readonly def

/BuildGlyph
 {exch begin
 CharStrings exch
 2 copy known not{pop /.notdef}if
 true 3 1 roll get exec
 end}_d

/BuildChar {
 1 index /Encoding get exch get
 1 index /BuildGlyph get exec
}_d

FontName currentdict end definefont pop
end
%%EndProlog
mpldict begin
75.6 223.2 translate
460.8 345.6 0 0 clipbox
gsave
0 0 m
460.8 0 l
460.8 345.6 l
0 345.6 l
cl
1.000 setgray
fill
grestore
gsave
57.17 41.96 m
413.08 41.96 l
413.08 311.04 l
57.17 311.04 l
cl
1.000 setgray
fill
grestore
gsave
355.9 269.1 57.17 41.96 clipbox
83.133775 41.96 m
89.213424 41.96 l
89.213424 42.589648 l
83.133775 42.589648 l
cl
0.122 0.467 0.706 setrgbcolor
fill
grestore
gsave
355.9 269.1 57.17 41.96 clipbox
89.213424 41.96 m
95.293073 41.96 l
95.293073 53.47356 l
89.213424 53.47356 l
cl
0.122 0.467 0.706 setrgbcolor
fill
grestore
gsave
355.9 269.1 57.17 41.96 clipbox
95.293073 41.96 m
101.372722 41.96 l
101.372722 103.215739 l
95.293073 103.215739 l
cl
0.122 0.467 0.706 setrgbcolor
fill
grestore
gsave
355.9 269.1 57.17 41.96 clipbox
101.372722 41.96 m
107.452371 41.96 l
107.452371 226.986512 l
101.372722 226.986512 l
cl
0.122 0.467 0.706 setrgbcolor
fill
grestore
gsave
355.9 269.1 57.17 41.96 clipbox
107.452371 41.96 m
113.53202 41.96 l
113.53202 273.490502 l
107.452371 273.490502 l
cl
0.122 0.467 0.706 setrgbcolor
fill
grestore
gsave
355.9 269.1 57.17 41.96 clipbox
113.53202 41.96 m
119.611669 41.96 l
119.611669 283.025169 l
113.53202 283.025169 l
cl
0.122 0.467 0.706 setrgbcolor
fill
grestore
gsave
355.9 269.1 57.17 41.96 clipbox
119.611669 41.96 m
125.691318 41.96 l
125.691318 298.226667 l
119.611669 298.226667 l
cl
0.122 0.467 0.706 setrgbcolor
fill
grestore
gsave
355.9 269.1 57.17 41.96 clipbox
125.691318 41.96 m
131.770967 41.96 l
131.770967 258.738753 l
125.691318 258.738753 l
cl
0.122 0.467 0.706 setrgbcolor
fill
grestore
gsave
355.9 269.1 57.17 41.96 clipbox
131.770967 41.96 m
137.850616 41.96 l
137.850616 148.820232 l
131.770967 148.820232 l
cl
0.122 0.467 0.706 setrgbcolor
fill
grestore
gsave
355.9 269.1 57.17 41.96 clipbox
137.850616 41.96 m
143.930265 41.96 l
143.930265 92.781575 l
137.850616 92.781575 l
cl
0.122 0.467 0.706 setrgbcolor
fill
grestore
gsave
355.9 269.1 57.17 41.96 clipbox
143.930265 41.96 m
150.009914 41.96 l
150.009914 68.225309 l
143.930265 68.225309 l
cl
0.122 0.467 0.706 setrgbcolor
fill
grestore
gsave
355.9 269.1 57.17 41.96 clipbox
150.009914 41.96 m
156.089563 41.96 l
156.089563 59.770039 l
150.009914 59.770039 l
cl
0.122 0.467 0.706 setrgbcolor
fill
grestore
gsave
355.9 269.1 57.17 41.96 clipbox
156.089563 41.96 m
162.169212 41.96 l
162.169212 52.753963 l
156.089563 52.753963 l
cl
0.122 0.467 0.706 setrgbcolor
fill
grestore
gsave
355.9 269.1 57.17 41.96 clipbox
162.169212 41.96 m
168.248861 41.96 l
168.248861 50.505221 l
162.169212 50.505221 l
cl
0.122 0.467 0.706 setrgbcolor
fill
grestore
gsave
355.9 269.1 57.17 41.96 clipbox
168.248861 41.96 m
174.32851 41.96 l
174.32851 49.335875 l
168.248861 49.335875 l
cl
0.122 0.467 0.706 setrgbcolor
fill
grestore
gsave
355.9 269.1 57.17 41.96 clipbox
174.32851 41.96 m
180.408159 41.96 l
180.408159 46.367535 l
174.32851 46.367535 l
cl
0.122 0.467 0.706 setrgbcolor
fill
grestore
gsave
355.9 269.1 57.17 41.96 clipbox
180.408159 41.96 m
186.487808 41.96 l
186.487808 47.177082 l
180.408159 47.177082 l
cl
0.122 0.467 0.706 setrgbcolor
fill
grestore
gsave
355.9 269.1 57.17 41.96 clipbox
186.487808 41.96 m
192.567457 41.96 l
192.567457 46.817283 l
186.487808 46.817283 l
cl
0.122 0.467 0.706 setrgbcolor
fill
grestore
gsave
355.9 269.1 57.17 41.96 clipbox
192.567457 41.96 m
198.647106 41.96 l
198.647106 46.547434 l
192.567457 46.547434 l
cl
0.122 0.467 0.706 setrgbcolor
fill
grestore
gsave
355.9 269.1 57.17 41.96 clipbox
198.647106 41.96 m
204.726755 41.96 l
204.726755 44.92834 l
198.647106 44.92834 l
cl
0.122 0.467 0.706 setrgbcolor
fill
grestore
gsave
355.9 269.1 57.17 41.96 clipbox
204.726755 41.96 m
210.806404 41.96 l
210.806404 44.568541 l
204.726755 44.568541 l
cl
0.122 0.467 0.706 setrgbcolor
fill
grestore
gsave
355.9 269.1 57.17 41.96 clipbox
210.806404 41.96 m
216.886053 41.96 l
216.886053 45.108239 l
210.806404 45.108239 l
cl
0.122 0.467 0.706 setrgbcolor
fill
grestore
gsave
355.9 269.1 57.17 41.96 clipbox
216.886053 41.96 m
222.965702 41.96 l
222.965702 44.298692 l
216.886053 44.298692 l
cl
0.122 0.467 0.706 setrgbcolor
fill
grestore
gsave
355.9 269.1 57.17 41.96 clipbox
222.965702 41.96 m
229.045351 41.96 l
229.045351 43.848943 l
222.965702 43.848943 l
cl
0.122 0.467 0.706 setrgbcolor
fill
grestore
gsave
355.9 269.1 57.17 41.96 clipbox
229.045351 41.96 m
235.125 41.96 l
235.125 44.118793 l
229.045351 44.118793 l
cl
0.122 0.467 0.706 setrgbcolor
fill
grestore
gsave
355.9 269.1 57.17 41.96 clipbox
235.125 41.96 m
241.204649 41.96 l
241.204649 43.669044 l
235.125 43.669044 l
cl
0.122 0.467 0.706 setrgbcolor
fill
grestore
gsave
355.9 269.1 57.17 41.96 clipbox
241.204649 41.96 m
247.284298 41.96 l
247.284298 43.848943 l
241.204649 43.848943 l
cl
0.122 0.467 0.706 setrgbcolor
fill
grestore
gsave
355.9 269.1 57.17 41.96 clipbox
247.284298 41.96 m
253.363947 41.96 l
253.363947 43.669044 l
247.284298 43.669044 l
cl
0.122 0.467 0.706 setrgbcolor
fill
grestore
gsave
355.9 269.1 57.17 41.96 clipbox
253.363947 41.96 m
259.443596 41.96 l
259.443596 43.579094 l
253.363947 43.579094 l
cl
0.122 0.467 0.706 setrgbcolor
fill
grestore
gsave
355.9 269.1 57.17 41.96 clipbox
259.443596 41.96 m
265.523245 41.96 l
265.523245 42.769547 l
259.443596 42.769547 l
cl
0.122 0.467 0.706 setrgbcolor
fill
grestore
gsave
355.9 269.1 57.17 41.96 clipbox
265.523245 41.96 m
271.602894 41.96 l
271.602894 42.859497 l
265.523245 42.859497 l
cl
0.122 0.467 0.706 setrgbcolor
fill
grestore
gsave
355.9 269.1 57.17 41.96 clipbox
271.602894 41.96 m
277.682543 41.96 l
277.682543 42.409748 l
271.602894 42.409748 l
cl
0.122 0.467 0.706 setrgbcolor
fill
grestore
gsave
355.9 269.1 57.17 41.96 clipbox
277.682543 41.96 m
283.762192 41.96 l
283.762192 42.499698 l
277.682543 42.499698 l
cl
0.122 0.467 0.706 setrgbcolor
fill
grestore
gsave
355.9 269.1 57.17 41.96 clipbox
283.762192 41.96 m
289.841841 41.96 l
289.841841 42.769547 l
283.762192 42.769547 l
cl
0.122 0.467 0.706 setrgbcolor
fill
grestore
gsave
355.9 269.1 57.17 41.96 clipbox
289.841841 41.96 m
295.92149 41.96 l
295.92149 42.319799 l
289.841841 42.319799 l
cl
0.122 0.467 0.706 setrgbcolor
fill
grestore
gsave
355.9 269.1 57.17 41.96 clipbox
295.92149 41.96 m
302.001139 41.96 l
302.001139 42.409748 l
295.92149 42.409748 l
cl
0.122 0.467 0.706 setrgbcolor
fill
grestore
gsave
355.9 269.1 57.17 41.96 clipbox
302.001139 41.96 m
308.080788 41.96 l
308.080788 42.679598 l
302.001139 42.679598 l
cl
0.122 0.467 0.706 setrgbcolor
fill
grestore
gsave
355.9 269.1 57.17 41.96 clipbox
308.080788 41.96 m
314.160437 41.96 l
314.160437 42.319799 l
308.080788 42.319799 l
cl
0.122 0.467 0.706 setrgbcolor
fill
grestore
gsave
355.9 269.1 57.17 41.96 clipbox
314.160437 41.96 m
320.240086 41.96 l
320.240086 42.139899 l
314.160437 42.139899 l
cl
0.122 0.467 0.706 setrgbcolor
fill
grestore
gsave
355.9 269.1 57.17 41.96 clipbox
320.240086 41.96 m
326.319735 41.96 l
326.319735 42.319799 l
320.240086 42.319799 l
cl
0.122 0.467 0.706 setrgbcolor
fill
grestore
gsave
355.9 269.1 57.17 41.96 clipbox
326.319735 41.96 m
332.399384 41.96 l
332.399384 42.04995 l
326.319735 42.04995 l
cl
0.122 0.467 0.706 setrgbcolor
fill
grestore
gsave
355.9 269.1 57.17 41.96 clipbox
332.399384 41.96 m
338.479033 41.96 l
338.479033 41.96 l
332.399384 41.96 l
cl
0.122 0.467 0.706 setrgbcolor
fill
grestore
gsave
355.9 269.1 57.17 41.96 clipbox
338.479033 41.96 m
344.558682 41.96 l
344.558682 41.96 l
338.479033 41.96 l
cl
0.122 0.467 0.706 setrgbcolor
fill
grestore
gsave
355.9 269.1 57.17 41.96 clipbox
344.558682 41.96 m
350.638331 41.96 l
350.638331 41.96 l
344.558682 41.96 l
cl
0.122 0.467 0.706 setrgbcolor
fill
grestore
gsave
355.9 269.1 57.17 41.96 clipbox
350.638331 41.96 m
356.71798 41.96 l
356.71798 41.96 l
350.638331 41.96 l
cl
0.122 0.467 0.706 setrgbcolor
fill
grestore
gsave
355.9 269.1 57.17 41.96 clipbox
356.71798 41.96 m
362.797629 41.96 l
362.797629 41.96 l
356.71798 41.96 l
cl
0.122 0.467 0.706 setrgbcolor
fill
grestore
gsave
355.9 269.1 57.17 41.96 clipbox
362.797629 41.96 m
368.877278 41.96 l
368.877278 42.04995 l
362.797629 42.04995 l
cl
0.122 0.467 0.706 setrgbcolor
fill
grestore
gsave
355.9 269.1 57.17 41.96 clipbox
368.877278 41.96 m
374.956927 41.96 l
374.956927 41.96 l
368.877278 41.96 l
cl
0.122 0.467 0.706 setrgbcolor
fill
grestore
gsave
355.9 269.1 57.17 41.96 clipbox
374.956927 41.96 m
381.036576 41.96 l
381.036576 41.96 l
374.956927 41.96 l
cl
0.122 0.467 0.706 setrgbcolor
fill
grestore
gsave
355.9 269.1 57.17 41.96 clipbox
381.036576 41.96 m
387.116225 41.96 l
387.116225 42.04995 l
381.036576 42.04995 l
cl
0.122 0.467 0.706 setrgbcolor
fill
grestore
0.800 setlinewidth
1 setlinejoin
0 setlinecap
[] 0 setdash
0.000 setgray
gsave
/o {
gsave
newpath
translate
0.8 setlinewidth
1 setlinejoin
0 setlinecap
0 0 m
0 -3.5 l

gsave
0.000 setgray
fill
grestore
stroke
grestore
} bind def
111.097 41.96 o
grestore
/DejaVuSans findfont
10.000 scalefont
setfont
gsave
107.917441 27.366250 translate
0.000000 rotate
0.000000 0.000000 m /six glyphshow
grestore
gsave
/o {
gsave
newpath
translate
0.8 setlinewidth
1 setlinejoin
0 setlinecap
0 0 m
0 -3.5 l

gsave
0.000 setgray
fill
grestore
stroke
grestore
} bind def
169.622 41.96 o
grestore
gsave
166.442300 27.366250 translate
0.000000 rotate
0.000000 0.000000 m /eight glyphshow
grestore
gsave
/o {
gsave
newpath
translate
0.8 setlinewidth
1 setlinejoin
0 setlinecap
0 0 m
0 -3.5 l

gsave
0.000 setgray
fill
grestore
stroke
grestore
} bind def
228.147 41.96 o
grestore
gsave
221.787472 27.366250 translate
0.000000 rotate
0.000000 0.000000 m /one glyphshow
6.362305 0.000000 m /zero glyphshow
grestore
gsave
/o {
gsave
newpath
translate
0.8 setlinewidth
1 setlinejoin
0 setlinecap
0 0 m
0 -3.5 l

gsave
0.000 setgray
fill
grestore
stroke
grestore
} bind def
286.672 41.96 o
grestore
gsave
280.312331 27.366250 translate
0.000000 rotate
0.000000 0.000000 m /one glyphshow
6.362305 0.000000 m /two glyphshow
grestore
gsave
/o {
gsave
newpath
translate
0.8 setlinewidth
1 setlinejoin
0 setlinecap
0 0 m
0 -3.5 l

gsave
0.000 setgray
fill
grestore
stroke
grestore
} bind def
345.197 41.96 o
grestore
gsave
338.837190 27.366250 translate
0.000000 rotate
0.000000 0.000000 m /one glyphshow
6.362305 0.000000 m /four glyphshow
grestore
gsave
/o {
gsave
newpath
translate
0.8 setlinewidth
1 setlinejoin
0 setlinecap
0 0 m
0 -3.5 l

gsave
0.000 setgray
fill
grestore
stroke
grestore
} bind def
403.721 41.96 o
grestore
gsave
397.362049 27.366250 translate
0.000000 rotate
0.000000 0.000000 m /one glyphshow
6.362305 0.000000 m /six glyphshow
grestore
gsave
188.156250 13.694375 translate
0.000000 rotate
0.000000 0.000000 m /S glyphshow
6.347656 0.000000 m /e glyphshow
12.500000 0.000000 m /ntilde glyphshow
18.837891 0.000000 m /a glyphshow
24.965820 0.000000 m /l glyphshow
27.744141 0.000000 m /space glyphshow
30.922852 0.000000 m /N glyphshow
38.403320 0.000000 m /o glyphshow
44.521484 0.000000 m /r glyphshow
48.632812 0.000000 m /m glyphshow
58.374023 0.000000 m /a glyphshow
64.501953 0.000000 m /l glyphshow
67.280273 0.000000 m /i glyphshow
70.058594 0.000000 m /z glyphshow
75.307617 0.000000 m /a glyphshow
81.435547 0.000000 m /d glyphshow
87.783203 0.000000 m /a glyphshow
grestore
gsave
/o {
gsave
newpath
translate
0.8 setlinewidth
1 setlinejoin
0 setlinecap
0 0 m
-3.5 0 l

gsave
0.000 setgray
fill
grestore
stroke
grestore
} bind def
57.17 41.96 o
grestore
gsave
43.810625 38.163125 translate
0.000000 rotate
0.000000 0.000000 m /zero glyphshow
grestore
gsave
/o {
gsave
newpath
translate
0.8 setlinewidth
1 setlinejoin
0 setlinecap
0 0 m
-3.5 0 l

gsave
0.000 setgray
fill
grestore
stroke
grestore
} bind def
57.17 86.9348 o
grestore
gsave
31.091875 83.137970 translate
0.000000 rotate
0.000000 0.000000 m /five glyphshow
6.362305 0.000000 m /zero glyphshow
12.724609 0.000000 m /zero glyphshow
grestore
gsave
/o {
gsave
newpath
translate
0.8 setlinewidth
1 setlinejoin
0 setlinecap
0 0 m
-3.5 0 l

gsave
0.000 setgray
fill
grestore
stroke
grestore
} bind def
57.17 131.91 o
grestore
gsave
24.732500 128.112815 translate
0.000000 rotate
0.000000 0.000000 m /one glyphshow
6.362305 0.000000 m /zero glyphshow
12.724609 0.000000 m /zero glyphshow
19.086914 0.000000 m /zero glyphshow
grestore
gsave
/o {
gsave
newpath
translate
0.8 setlinewidth
1 setlinejoin
0 setlinecap
0 0 m
-3.5 0 l

gsave
0.000 setgray
fill
grestore
stroke
grestore
} bind def
57.17 176.885 o
grestore
gsave
24.732500 173.087660 translate
0.000000 rotate
0.000000 0.000000 m /one glyphshow
6.362305 0.000000 m /five glyphshow
12.724609 0.000000 m /zero glyphshow
19.086914 0.000000 m /zero glyphshow
grestore
gsave
/o {
gsave
newpath
translate
0.8 setlinewidth
1 setlinejoin
0 setlinecap
0 0 m
-3.5 0 l

gsave
0.000 setgray
fill
grestore
stroke
grestore
} bind def
57.17 221.859 o
grestore
gsave
24.732500 218.062505 translate
0.000000 rotate
0.000000 0.000000 m /two glyphshow
6.362305 0.000000 m /zero glyphshow
12.724609 0.000000 m /zero glyphshow
19.086914 0.000000 m /zero glyphshow
grestore
gsave
/o {
gsave
newpath
translate
0.8 setlinewidth
1 setlinejoin
0 setlinecap
0 0 m
-3.5 0 l

gsave
0.000 setgray
fill
grestore
stroke
grestore
} bind def
57.17 266.834 o
grestore
gsave
24.732500 263.037350 translate
0.000000 rotate
0.000000 0.000000 m /two glyphshow
6.362305 0.000000 m /five glyphshow
12.724609 0.000000 m /zero glyphshow
19.086914 0.000000 m /zero glyphshow
grestore
gsave
18.654375 132.976562 translate
90.000000 rotate
0.000000 0.000000 m /F glyphshow
5.751953 0.000000 m /r glyphshow
9.863281 0.000000 m /e glyphshow
16.015625 0.000000 m /c glyphshow
21.513672 0.000000 m /u glyphshow
27.851562 0.000000 m /e glyphshow
34.003906 0.000000 m /n glyphshow
40.341797 0.000000 m /c glyphshow
45.839844 0.000000 m /i glyphshow
48.618164 0.000000 m /a glyphshow
54.746094 0.000000 m /space glyphshow
57.924805 0.000000 m /D glyphshow
65.625000 0.000000 m /a glyphshow
71.752930 0.000000 m /t glyphshow
75.673828 0.000000 m /o glyphshow
81.791992 0.000000 m /s glyphshow
grestore
0 setlinejoin
2 setlinecap
[] 0 setdash
gsave
57.17 41.96 m
57.17 311.04 l
stroke
grestore
gsave
413.08 41.96 m
413.08 311.04 l
stroke
grestore
gsave
57.17 41.96 m
413.08 41.96 l
stroke
grestore
gsave
57.17 311.04 m
413.08 311.04 l
stroke
grestore
1 setlinejoin
0 setlinecap
[] 0 setdash
gsave
/o {
gsave
newpath
translate
0.8 setlinewidth
1 setlinejoin
0 setlinecap
0 0 m
3.5 0 l

gsave
0.000 setgray
fill
grestore
stroke
grestore
} bind def
413.08 41.96 o
grestore
gsave
420.080000 38.163125 translate
0.000000 rotate
0.000000 0.000000 m /zero glyphshow
6.362305 0.000000 m /period glyphshow
9.541016 0.000000 m /zero glyphshow
grestore
gsave
/o {
gsave
newpath
translate
0.8 setlinewidth
1 setlinejoin
0 setlinecap
0 0 m
3.5 0 l

gsave
0.000 setgray
fill
grestore
stroke
grestore
} bind def
413.08 73.5545 o
grestore
gsave
420.080000 69.757670 translate
0.000000 rotate
0.000000 0.000000 m /zero glyphshow
6.362305 0.000000 m /period glyphshow
9.541016 0.000000 m /one glyphshow
grestore
gsave
/o {
gsave
newpath
translate
0.8 setlinewidth
1 setlinejoin
0 setlinecap
0 0 m
3.5 0 l

gsave
0.000 setgray
fill
grestore
stroke
grestore
} bind def
413.08 105.149 o
grestore
gsave
420.080000 101.352215 translate
0.000000 rotate
0.000000 0.000000 m /zero glyphshow
6.362305 0.000000 m /period glyphshow
9.541016 0.000000 m /two glyphshow
grestore
gsave
/o {
gsave
newpath
translate
0.8 setlinewidth
1 setlinejoin
0 setlinecap
0 0 m
3.5 0 l

gsave
0.000 setgray
fill
grestore
stroke
grestore
} bind def
413.08 136.744 o
grestore
gsave
420.080000 132.946760 translate
0.000000 rotate
0.000000 0.000000 m /zero glyphshow
6.362305 0.000000 m /period glyphshow
9.541016 0.000000 m /three glyphshow
grestore
gsave
/o {
gsave
newpath
translate
0.8 setlinewidth
1 setlinejoin
0 setlinecap
0 0 m
3.5 0 l

gsave
0.000 setgray
fill
grestore
stroke
grestore
} bind def
413.08 168.338 o
grestore
gsave
420.080000 164.541305 translate
0.000000 rotate
0.000000 0.000000 m /zero glyphshow
6.362305 0.000000 m /period glyphshow
9.541016 0.000000 m /four glyphshow
grestore
gsave
/o {
gsave
newpath
translate
0.8 setlinewidth
1 setlinejoin
0 setlinecap
0 0 m
3.5 0 l

gsave
0.000 setgray
fill
grestore
stroke
grestore
} bind def
413.08 199.933 o
grestore
gsave
420.080000 196.135850 translate
0.000000 rotate
0.000000 0.000000 m /zero glyphshow
6.362305 0.000000 m /period glyphshow
9.541016 0.000000 m /five glyphshow
grestore
gsave
/o {
gsave
newpath
translate
0.8 setlinewidth
1 setlinejoin
0 setlinecap
0 0 m
3.5 0 l

gsave
0.000 setgray
fill
grestore
stroke
grestore
} bind def
413.08 231.527 o
grestore
gsave
420.080000 227.730395 translate
0.000000 rotate
0.000000 0.000000 m /zero glyphshow
6.362305 0.000000 m /period glyphshow
9.541016 0.000000 m /six glyphshow
grestore
gsave
/o {
gsave
newpath
translate
0.8 setlinewidth
1 setlinejoin
0 setlinecap
0 0 m
3.5 0 l

gsave
0.000 setgray
fill
grestore
stroke
grestore
} bind def
413.08 263.122 o
grestore
gsave
420.080000 259.324940 translate
0.000000 rotate
0.000000 0.000000 m /zero glyphshow
6.362305 0.000000 m /period glyphshow
9.541016 0.000000 m /seven glyphshow
grestore
gsave
/o {
gsave
newpath
translate
0.8 setlinewidth
1 setlinejoin
0 setlinecap
0 0 m
3.5 0 l

gsave
0.000 setgray
fill
grestore
stroke
grestore
} bind def
413.08 294.716 o
grestore
gsave
420.080000 290.919485 translate
0.000000 rotate
0.000000 0.000000 m /zero glyphshow
6.362305 0.000000 m /period glyphshow
9.541016 0.000000 m /eight glyphshow
grestore
gsave
447.580000 127.734375 translate
90.000000 rotate
0.000000 0.000000 m /P glyphshow
6.030273 0.000000 m /r glyphshow
10.141602 0.000000 m /o glyphshow
16.259766 0.000000 m /b glyphshow
22.607422 0.000000 m /a glyphshow
28.735352 0.000000 m /b glyphshow
35.083008 0.000000 m /i glyphshow
37.861328 0.000000 m /l glyphshow
40.639648 0.000000 m /i glyphshow
43.417969 0.000000 m /d glyphshow
49.765625 0.000000 m /a glyphshow
55.893555 0.000000 m /d glyphshow
62.241211 0.000000 m /space glyphshow
65.419922 0.000000 m /K glyphshow
71.977539 0.000000 m /e glyphshow
78.129883 0.000000 m /r glyphshow
82.241211 0.000000 m /n glyphshow
88.579102 0.000000 m /e glyphshow
94.731445 0.000000 m /l glyphshow
grestore
1.500 setlinewidth
2 setlinecap
1.000 0.000 0.000 setrgbcolor
gsave
355.9 269.1 57.17 41.96 clipbox
73.347727 41.960799 m
76.615955 41.970911 l
79.884183 42.030775 l
83.15241 42.2867 l
86.420638 43.41882 l
89.688866 47.814233 l
92.957094 60.919637 l
96.225321 90.014715 l
99.493549 137.907774 l
102.761777 196.525484 l
106.030005 246.660556 l
109.298232 273.092386 l
112.56646 279.676997 l
115.834688 281.32673 l
119.102916 288.812453 l
122.371143 298.226667 l
125.639371 290.671743 l
128.907599 255.30043 l
132.175826 202.163405 l
135.444054 151.506071 l
138.712282 114.092766 l
141.98051 90.227335 l
145.248737 76.167362 l
148.516965 67.766075 l
151.785193 61.942919 l
155.053421 56.969995 l
158.321648 53.65209 l
161.589876 52.162775 l
164.858104 51.152269 l
168.126331 50.10432 l
171.394559 49.18657 l
174.662787 47.943255 l
177.931015 47.048839 l
181.199242 47.184017 l
184.46747 47.345307 l
187.735698 47.084117 l
191.003926 46.598769 l
194.272153 46.486863 l
197.540381 46.352999 l
200.808609 45.537608 l
204.076837 44.810438 l
207.345064 44.582176 l
210.613292 44.601378 l
213.88152 44.973095 l
217.149747 44.964481 l
220.417975 44.327775 l
223.686203 43.855956 l
226.954431 43.863709 l
230.222658 44.012966 l
233.490886 44.107082 l
236.759114 44.0146 l
240.027342 43.850871 l
243.295569 43.785321 l
246.563797 43.680327 l
249.832025 43.787311 l
253.100253 43.945839 l
256.36848 43.543288 l
259.636708 43.057461 l
262.904936 42.859522 l
266.173163 42.857769 l
269.441391 42.812397 l
272.709619 42.631415 l
275.977847 42.507023 l
279.246074 42.518646 l
282.514302 42.54267 l
285.78253 42.624589 l
289.050758 42.600562 l
292.318985 42.43313 l
295.587213 42.371689 l
298.855441 42.534894 l
302.123669 42.660857 l
305.391896 42.516394 l
308.660124 42.343048 l
311.928352 42.293733 l
315.196579 42.244025 l
318.464807 42.302436 l
321.733035 42.325349 l
325.001263 42.204926 l
328.26949 42.072157 l
331.537718 41.989338 l
334.805946 41.963424 l
338.074174 41.960158 l
341.342401 41.960003 l
344.610629 41.96 l
347.878857 41.96 l
351.147084 41.960005 l
354.415312 41.960242 l
357.68354 41.964251 l
360.951768 41.987355 l
364.219995 42.024517 l
367.488223 42.015768 l
370.756451 41.977667 l
374.024679 41.962073 l
377.292906 41.960825 l
380.561134 41.969128 l
383.829362 42.001368 l
387.09759 42.028724 l
390.365817 42.001844 l
393.634045 41.969338 l
396.902273 41.960764 l
stroke
grestore
0.800 setlinewidth
0 setlinejoin
[] 0 setdash
0.000 setgray
gsave
57.17 41.96 m
57.17 311.04 l
stroke
grestore
gsave
413.08 41.96 m
413.08 311.04 l
stroke
grestore
gsave
57.17 41.96 m
413.08 41.96 l
stroke
grestore
gsave
57.17 311.04 m
413.08 311.04 l
stroke
grestore
1.000 setlinewidth
0 setlinecap
0.800 setgray
gsave
286.751875 288.368125 m
406.08 288.368125 l
407.413333 288.368125 408.08 289.034792 408.08 290.368125 c
408.08 304.04 l
408.08 305.373333 407.413333 306.04 406.08 306.04 c
286.751875 306.04 l
285.418542 306.04 284.751875 305.373333 284.751875 304.04 c
284.751875 290.368125 l
284.751875 289.034792 285.418542 288.368125 286.751875 288.368125 c
cl
gsave
1.000 setgray
fill
grestore
stroke
grestore
1.500 setlinewidth
1 setlinejoin
2 setlinecap
[] 0 setdash
1.000 0.000 0.000 setrgbcolor
gsave
288.751875 297.94625 m
308.751875 297.94625 l
stroke
grestore
0.000 setgray
gsave
316.751875 294.446250 translate
0.000000 rotate
0.000000 0.000000 m /K glyphshow
6.557617 0.000000 m /e glyphshow
12.709961 0.000000 m /r glyphshow
16.821289 0.000000 m /n glyphshow
23.159180 0.000000 m /e glyphshow
29.311523 0.000000 m /l glyphshow
32.089844 0.000000 m /space glyphshow
35.268555 0.000000 m /G glyphshow
43.017578 0.000000 m /a glyphshow
49.145508 0.000000 m /u glyphshow
55.483398 0.000000 m /s glyphshow
60.693359 0.000000 m /s glyphshow
65.903320 0.000000 m /i glyphshow
68.681641 0.000000 m /a glyphshow
74.809570 0.000000 m /n glyphshow
81.147461 0.000000 m /o glyphshow
grestore
/DejaVuSans findfont
12.000 scalefont
setfont
gsave
8.173438 329.094250 translate
0.000000 rotate
0.000000 0.000000 m /D glyphshow
9.240234 0.000000 m /i glyphshow
12.574219 0.000000 m /s glyphshow
18.826172 0.000000 m /t glyphshow
23.531250 0.000000 m /r glyphshow
28.464844 0.000000 m /i glyphshow
31.798828 0.000000 m /b glyphshow
39.416016 0.000000 m /u glyphshow
47.021484 0.000000 m /c glyphshow
53.619141 0.000000 m /i glyphshow
56.953125 0.000000 m /oacute glyphshow
64.294922 0.000000 m /n glyphshow
71.900391 0.000000 m /space glyphshow
75.714844 0.000000 m /D glyphshow
84.955078 0.000000 m /a glyphshow
92.308594 0.000000 m /t glyphshow
97.013672 0.000000 m /o glyphshow
104.355469 0.000000 m /s glyphshow
110.607422 0.000000 m /space glyphshow
114.421875 0.000000 m /I glyphshow
117.960938 0.000000 m /n glyphshow
125.566406 0.000000 m /t glyphshow
130.271484 0.000000 m /e glyphshow
137.654297 0.000000 m /r glyphshow
142.587891 0.000000 m /a glyphshow
149.941406 0.000000 m /c glyphshow
156.539062 0.000000 m /c glyphshow
163.136719 0.000000 m /i glyphshow
166.470703 0.000000 m /oacute glyphshow
173.812500 0.000000 m /n glyphshow
181.417969 0.000000 m /space glyphshow
185.232422 0.000000 m /A glyphshow
193.441406 0.000000 m /n glyphshow
201.046875 0.000000 m /t glyphshow
205.751953 0.000000 m /iacute glyphshow
209.085938 0.000000 m /g glyphshow
216.703125 0.000000 m /e glyphshow
224.085938 0.000000 m /n glyphshow
231.691406 0.000000 m /o glyphshow
239.033203 0.000000 m /s glyphshow
245.285156 0.000000 m /space glyphshow
249.099609 0.000000 m /P glyphshow
256.335938 0.000000 m /r glyphshow
261.269531 0.000000 m /o glyphshow
268.611328 0.000000 m /t glyphshow
273.316406 0.000000 m /o glyphshow
280.658203 0.000000 m /A glyphshow
288.867188 0.000000 m /r glyphshow
293.800781 0.000000 m /r glyphshow
298.734375 0.000000 m /a glyphshow
306.087891 0.000000 m /y glyphshow
313.189453 0.000000 m /space glyphshow
317.003906 0.000000 m /C glyphshow
325.382812 0.000000 m /o glyphshow
332.724609 0.000000 m /n glyphshow
340.330078 0.000000 m /space glyphshow
344.144531 0.000000 m /A glyphshow
352.353516 0.000000 m /n glyphshow
359.958984 0.000000 m /t glyphshow
364.664062 0.000000 m /i glyphshow
367.998047 0.000000 m /c glyphshow
374.595703 0.000000 m /u glyphshow
382.201172 0.000000 m /e glyphshow
389.583984 0.000000 m /r glyphshow
394.517578 0.000000 m /p glyphshow
402.134766 0.000000 m /o glyphshow
409.476562 0.000000 m /space glyphshow
413.291016 0.000000 m /A glyphshow
421.500000 0.000000 m /one glyphshow
429.134766 0.000000 m /seven glyphshow
436.769531 0.000000 m /six glyphshow
grestore

end
showpage
